%YAML 1.1
%TAG !u! tag:unity3d.com,2011:
--- !u!162 &1
EditorUserSettings:
  m_ObjectHideFlags: 0
  serializedVersion: 4
  m_ConfigSettings:
    RecentlyUsedScenePath-0:
      value: 22424703114646580c1c08315f1c6c1313191d39637a02700e280f37a2d03b28f7f778fce9332b25
      flags: 0
    RecentlyUsedScenePath-1:
      value: 22424703114646580c1c08315f1c6c1313191d39637a02700e280f37a2c52c28e3e932e0e93d7129370bfb25
      flags: 0
    RecentlyUsedScenePath-2:
      value: 22424703114646580c1c08315f1c6c1313191d39631b3320283b183feee9242be7a706e5e623382e3617e1384a2b0f36e613
      flags: 0
    RecentlyUsedScenePath-3:
      value: 22424703114646580c1c08315f1c6c1313191d39637a02700e280f37a2d32039e1ec78fce9332b25
      flags: 0
    RecentlyUsedScenePath-4:
      value: 22424703114646580c1c08315f1c6c1313191d39637b02700e280f37a2c52c28e3e932e0e93d7129370bfb25
      flags: 0
    RecentlyUsedScenePath-5:
      value: 22424703114646680e0b0227036c6c111b07142f1f2b233e2867083debf42d
      flags: 0
    vcSharedLogLevel:
      value: 0d5e400f0650
      flags: 0
  m_VCAutomaticAdd: 1
  m_VCDebugCom: 0
  m_VCDebugCmd: 0
  m_VCDebugOut: 0
  m_SemanticMergeMode: 2
  m_VCShowFailedCheckout: 1
  m_VCOverwriteFailedCheckoutAssets: 1
  m_VCProjectOverlayIcons: 1
  m_VCHierarchyOverlayIcons: 1
  m_VCOtherOverlayIcons: 1
  m_VCAllowAsyncUpdate: 1
