%YAML 1.1
%TAG !u! tag:unity3d.com,2011:
--- !u!74 &7400000
AnimationClip:
  m_ObjectHideFlags: 0
  m_CorrespondingSourceObject: {fileID: 0}
  m_PrefabInstance: {fileID: 0}
  m_PrefabAsset: {fileID: 0}
  m_Name: Hit
  serializedVersion: 6
  m_Legacy: 0
  m_Compressed: 0
  m_UseHighQualityCurve: 1
  m_RotationCurves: []
  m_CompressedRotationCurves: []
  m_EulerCurves: []
  m_PositionCurves: []
  m_ScaleCurves: []
  m_FloatCurves: []
  m_PPtrCurves:
  - curve:
    - time: 0
      value: {fileID: 21300000, guid: e5e5936ceaf3e1e45986a8fe18411f36, type: 3}
    - time: 0.083333336
      value: {fileID: 21300000, guid: 550a63e492ddb4e4db2205ccc177fc07, type: 3}
    - time: 0.16666667
      value: {fileID: 21300000, guid: 41e4fa8239202704099c4f8baf1a1fb8, type: 3}
    - time: 0.25
      value: {fileID: 21300000, guid: 45aa981c44e2dcd4d8c443b8edd4b92f, type: 3}
    - time: 0.33333334
      value: {fileID: 21300000, guid: 2c962c0d7a7006c4fa629037d1635b22, type: 3}
    - time: 0.41666666
      value: {fileID: 21300000, guid: c5b67e0b1c164e54bacca8d4c2aa6d5f, type: 3}
    - time: 0.5
      value: {fileID: 21300000, guid: 91933f0c2548af140ab675e44d34b20b, type: 3}
    attribute: m_Sprite
    path: 
    classID: 212
    script: {fileID: 0}
  m_SampleRate: 60
  m_WrapMode: 0
  m_Bounds:
    m_Center: {x: 0, y: 0, z: 0}
    m_Extent: {x: 0, y: 0, z: 0}
  m_ClipBindingConstant:
    genericBindings:
    - serializedVersion: 2
      path: 0
      attribute: 0
      script: {fileID: 0}
      typeID: 212
      customType: 23
      isPPtrCurve: 1
    pptrCurveMapping:
    - {fileID: 21300000, guid: e5e5936ceaf3e1e45986a8fe18411f36, type: 3}
    - {fileID: 21300000, guid: 550a63e492ddb4e4db2205ccc177fc07, type: 3}
    - {fileID: 21300000, guid: 41e4fa8239202704099c4f8baf1a1fb8, type: 3}
    - {fileID: 21300000, guid: 45aa981c44e2dcd4d8c443b8edd4b92f, type: 3}
    - {fileID: 21300000, guid: 2c962c0d7a7006c4fa629037d1635b22, type: 3}
    - {fileID: 21300000, guid: c5b67e0b1c164e54bacca8d4c2aa6d5f, type: 3}
    - {fileID: 21300000, guid: 91933f0c2548af140ab675e44d34b20b, type: 3}
  m_AnimationClipSettings:
    serializedVersion: 2
    m_AdditiveReferencePoseClip: {fileID: 0}
    m_AdditiveReferencePoseTime: 0
    m_StartTime: 0
    m_StopTime: 0.51666665
    m_OrientationOffsetY: 0
    m_Level: 0
    m_CycleOffset: 0
    m_HasAdditiveReferencePose: 0
    m_LoopTime: 1
    m_LoopBlend: 0
    m_LoopBlendOrientation: 0
    m_LoopBlendPositionY: 0
    m_LoopBlendPositionXZ: 0
    m_KeepOriginalOrientation: 0
    m_KeepOriginalPositionY: 1
    m_KeepOriginalPositionXZ: 0
    m_HeightFromFeet: 0
    m_Mirror: 0
  m_EditorCurves: []
  m_EulerEditorCurves: []
  m_HasGenericRootTransform: 0
  m_HasMotionFloatCurves: 0
  m_Events: []
