%YAML 1.1
%TAG !u! tag:unity3d.com,2011:
--- !u!114 &11400000
MonoBehaviour:
  m_ObjectHideFlags: 0
  m_CorrespondingSourceObject: {fileID: 0}
  m_PrefabInstance: {fileID: 0}
  m_PrefabAsset: {fileID: 0}
  m_GameObject: {fileID: 0}
  m_Enabled: 1
  m_EditorHideFlags: 0
  m_Script: {fileID: 11500000, guid: af7181f404f1447c0a7a17b3070b952b, type: 3}
  m_Name: Ground
  m_EditorClassIdentifier: 
  m_Angles:
  - m_Start: -45
    m_End: 45
    m_Order: 4
    m_Sprites:
    - {fileID: 21300000, guid: b409162d8075b5047a5ef8de86dadba4, type: 3}
  - m_Start: -135
    m_End: -45
    m_Order: 3
    m_Sprites:
    - {fileID: 21300000, guid: 5ea9dd36a27a93249a3e0fab952b7cff, type: 3}
  - m_Start: 135
    m_End: 225
    m_Order: 2
    m_Sprites:
    - {fileID: 21300000, guid: b409162d8075b5047a5ef8de86dadba4, type: 3}
  - m_Start: 45
    m_End: 135
    m_Order: 1
    m_Sprites:
    - {fileID: 21300000, guid: 5ea9dd36a27a93249a3e0fab952b7cff, type: 3}
    - {fileID: 0}
  m_FillTexture: {fileID: 2800000, guid: 9d2a01e9573e15e478b2580e164a49ed, type: 3}
  m_CornerSprites:
  - m_CornerType: 0
    m_Sprites:
    - {fileID: 0}
  - m_CornerType: 1
    m_Sprites:
    - {fileID: 0}
  - m_CornerType: 2
    m_Sprites:
    - {fileID: 0}
  - m_CornerType: 3
    m_Sprites:
    - {fileID: 0}
  - m_CornerType: 4
    m_Sprites:
    - {fileID: 0}
  - m_CornerType: 5
    m_Sprites:
    - {fileID: 0}
  - m_CornerType: 6
    m_Sprites:
    - {fileID: 0}
  - m_CornerType: 7
    m_Sprites:
    - {fileID: 0}
  m_FillOffset: 0
  m_UseSpriteBorders: 1
