%YAML 1.1
%TAG !u! tag:unity3d.com,2011:
--- !u!74 &7400000
AnimationClip:
  m_ObjectHideFlags: 0
  m_CorrespondingSourceObject: {fileID: 0}
  m_PrefabInstance: {fileID: 0}
  m_PrefabAsset: {fileID: 0}
  m_Name: Attack
  serializedVersion: 6
  m_Legacy: 0
  m_Compressed: 0
  m_UseHighQualityCurve: 1
  m_RotationCurves: []
  m_CompressedRotationCurves: []
  m_EulerCurves: []
  m_PositionCurves: []
  m_ScaleCurves: []
  m_FloatCurves: []
  m_PPtrCurves:
  - curve:
    - time: 0
      value: {fileID: 21300000, guid: feeabd7bfbc0db1458b564431b96063c, type: 3}
    - time: 0.05
      value: {fileID: 21300000, guid: 791ff944cceb37245aa8d2ad2ca57f01, type: 3}
    - time: 0.1
      value: {fileID: 21300000, guid: f0e685e241fea8848a8482445926cde6, type: 3}
    - time: 0.15
      value: {fileID: 21300000, guid: d6c7e79ff5c36034bb459f92e44fb906, type: 3}
    - time: 0.2
      value: {fileID: 21300000, guid: a03d04b14ad02d24fbc369ad4a1ba71b, type: 3}
    - time: 0.25
      value: {fileID: 21300000, guid: 6de4a2795bbe08549b15399f990e6d4c, type: 3}
    - time: 0.3
      value: {fileID: 21300000, guid: 15fdd32288f64f54592d54a6856a5583, type: 3}
    - time: 0.35
      value: {fileID: 21300000, guid: ffd73fc71b88fb341b47a643f35fab8b, type: 3}
    - time: 0.4
      value: {fileID: 21300000, guid: e16d9e0a6ceeebf43a64eb6d5062462e, type: 3}
    - time: 0.45
      value: {fileID: 21300000, guid: 72eb11513e5c4184a83f70061114d685, type: 3}
    - time: 0.5
      value: {fileID: 21300000, guid: 54382c6098ab97345a9bae74f8a0d182, type: 3}
    attribute: m_Sprite
    path: 
    classID: 212
    script: {fileID: 0}
  m_SampleRate: 60
  m_WrapMode: 0
  m_Bounds:
    m_Center: {x: 0, y: 0, z: 0}
    m_Extent: {x: 0, y: 0, z: 0}
  m_ClipBindingConstant:
    genericBindings:
    - serializedVersion: 2
      path: 0
      attribute: 0
      script: {fileID: 0}
      typeID: 212
      customType: 23
      isPPtrCurve: 1
    pptrCurveMapping:
    - {fileID: 21300000, guid: feeabd7bfbc0db1458b564431b96063c, type: 3}
    - {fileID: 21300000, guid: 791ff944cceb37245aa8d2ad2ca57f01, type: 3}
    - {fileID: 21300000, guid: f0e685e241fea8848a8482445926cde6, type: 3}
    - {fileID: 21300000, guid: d6c7e79ff5c36034bb459f92e44fb906, type: 3}
    - {fileID: 21300000, guid: a03d04b14ad02d24fbc369ad4a1ba71b, type: 3}
    - {fileID: 21300000, guid: 6de4a2795bbe08549b15399f990e6d4c, type: 3}
    - {fileID: 21300000, guid: 15fdd32288f64f54592d54a6856a5583, type: 3}
    - {fileID: 21300000, guid: ffd73fc71b88fb341b47a643f35fab8b, type: 3}
    - {fileID: 21300000, guid: e16d9e0a6ceeebf43a64eb6d5062462e, type: 3}
    - {fileID: 21300000, guid: 72eb11513e5c4184a83f70061114d685, type: 3}
    - {fileID: 21300000, guid: 54382c6098ab97345a9bae74f8a0d182, type: 3}
  m_AnimationClipSettings:
    serializedVersion: 2
    m_AdditiveReferencePoseClip: {fileID: 0}
    m_AdditiveReferencePoseTime: 0
    m_StartTime: 0
    m_StopTime: 0.51666665
    m_OrientationOffsetY: 0
    m_Level: 0
    m_CycleOffset: 0
    m_HasAdditiveReferencePose: 0
    m_LoopTime: 1
    m_LoopBlend: 0
    m_LoopBlendOrientation: 0
    m_LoopBlendPositionY: 0
    m_LoopBlendPositionXZ: 0
    m_KeepOriginalOrientation: 0
    m_KeepOriginalPositionY: 1
    m_KeepOriginalPositionXZ: 0
    m_HeightFromFeet: 0
    m_Mirror: 0
  m_EditorCurves: []
  m_EulerEditorCurves: []
  m_HasGenericRootTransform: 0
  m_HasMotionFloatCurves: 0
  m_Events: []
