%YAML 1.1
%TAG !u! tag:unity3d.com,2011:
--- !u!74 &7400000
AnimationClip:
  m_ObjectHideFlags: 0
  m_CorrespondingSourceObject: {fileID: 0}
  m_PrefabInstance: {fileID: 0}
  m_PrefabAsset: {fileID: 0}
  m_Name: Run
  serializedVersion: 6
  m_Legacy: 0
  m_Compressed: 0
  m_UseHighQualityCurve: 1
  m_RotationCurves: []
  m_CompressedRotationCurves: []
  m_EulerCurves: []
  m_PositionCurves: []
  m_ScaleCurves: []
  m_FloatCurves: []
  m_PPtrCurves:
  - curve:
    - time: 0
      value: {fileID: 21300000, guid: a7a65439537ec214dbfa297df70224a0, type: 3}
    - time: 0.05
      value: {fileID: 21300000, guid: 7ab3c0b4bf9ce00458cfe1361b401de1, type: 3}
    - time: 0.1
      value: {fileID: 21300000, guid: b5ddb7e7e2e8bbc4aa38651f87b00023, type: 3}
    - time: 0.15
      value: {fileID: 21300000, guid: 59d9b3b3a4a67ea46aeed908ffb5cfb0, type: 3}
    - time: 0.2
      value: {fileID: 21300000, guid: b12dd10b53a5c7b48ad1fe7cd411e4df, type: 3}
    - time: 0.26666668
      value: {fileID: 21300000, guid: b5eed2ed13dd6514e958d7e651b443aa, type: 3}
    - time: 0.31666666
      value: {fileID: 21300000, guid: 42f85f91e6c9f6543828c62b2d9a4c95, type: 3}
    - time: 0.36666667
      value: {fileID: 21300000, guid: 6c3cf4df3b91eb342bc317725df0ee59, type: 3}
    - time: 0.43333334
      value: {fileID: 21300000, guid: f13c7a834dc92284cbf5b76faea66a4a, type: 3}
    - time: 0.48333332
      value: {fileID: 21300000, guid: a0a1bc7304c4bf4438265c659885f3b1, type: 3}
    - time: 0.53333336
      value: {fileID: 21300000, guid: b1559c676d4946d43b9c7aea9b1ba32c, type: 3}
    - time: 0.5833333
      value: {fileID: 21300000, guid: f4531b44e52356f4cb607909320b5f55, type: 3}
    attribute: m_Sprite
    path: 
    classID: 212
    script: {fileID: 0}
  m_SampleRate: 60
  m_WrapMode: 0
  m_Bounds:
    m_Center: {x: 0, y: 0, z: 0}
    m_Extent: {x: 0, y: 0, z: 0}
  m_ClipBindingConstant:
    genericBindings:
    - serializedVersion: 2
      path: 0
      attribute: 0
      script: {fileID: 0}
      typeID: 212
      customType: 23
      isPPtrCurve: 1
    pptrCurveMapping:
    - {fileID: 21300000, guid: a7a65439537ec214dbfa297df70224a0, type: 3}
    - {fileID: 21300000, guid: 7ab3c0b4bf9ce00458cfe1361b401de1, type: 3}
    - {fileID: 21300000, guid: b5ddb7e7e2e8bbc4aa38651f87b00023, type: 3}
    - {fileID: 21300000, guid: 59d9b3b3a4a67ea46aeed908ffb5cfb0, type: 3}
    - {fileID: 21300000, guid: b12dd10b53a5c7b48ad1fe7cd411e4df, type: 3}
    - {fileID: 21300000, guid: b5eed2ed13dd6514e958d7e651b443aa, type: 3}
    - {fileID: 21300000, guid: 42f85f91e6c9f6543828c62b2d9a4c95, type: 3}
    - {fileID: 21300000, guid: 6c3cf4df3b91eb342bc317725df0ee59, type: 3}
    - {fileID: 21300000, guid: f13c7a834dc92284cbf5b76faea66a4a, type: 3}
    - {fileID: 21300000, guid: a0a1bc7304c4bf4438265c659885f3b1, type: 3}
    - {fileID: 21300000, guid: b1559c676d4946d43b9c7aea9b1ba32c, type: 3}
    - {fileID: 21300000, guid: f4531b44e52356f4cb607909320b5f55, type: 3}
  m_AnimationClipSettings:
    serializedVersion: 2
    m_AdditiveReferencePoseClip: {fileID: 0}
    m_AdditiveReferencePoseTime: 0
    m_StartTime: 0
    m_StopTime: 0.59999996
    m_OrientationOffsetY: 0
    m_Level: 0
    m_CycleOffset: 0
    m_HasAdditiveReferencePose: 0
    m_LoopTime: 1
    m_LoopBlend: 0
    m_LoopBlendOrientation: 0
    m_LoopBlendPositionY: 0
    m_LoopBlendPositionXZ: 0
    m_KeepOriginalOrientation: 0
    m_KeepOriginalPositionY: 1
    m_KeepOriginalPositionXZ: 0
    m_HeightFromFeet: 0
    m_Mirror: 0
  m_EditorCurves: []
  m_EulerEditorCurves: []
  m_HasGenericRootTransform: 0
  m_HasMotionFloatCurves: 0
  m_Events: []
