%YAML 1.1
%TAG !u! tag:unity3d.com,2011:
--- !u!114 &11400000
MonoBehaviour:
  m_ObjectHideFlags: 0
  m_CorrespondingSourceObject: {fileID: 0}
  m_PrefabInstance: {fileID: 0}
  m_PrefabAsset: {fileID: 0}
  m_GameObject: {fileID: 0}
  m_Enabled: 1
  m_EditorHideFlags: 0
  m_Script: {fileID: 11500000, guid: f4d3cb9a0036e5b4ea2b5b76e5fa8213, type: 3}
  m_Name: l1
  m_EditorClassIdentifier: 
  gridSize: {x: 28, y: 31}
  cells:
  - row:
    - W
    - W
    - W
    - W
    - W
    - W
    - W
    - W
    - W
    - W
    - W
    - W
    - W
    - W
    - W
    - W
    - W
    - W
    - W
    - W
    - W
    - W
    - W
    - W
    - W
    - W
    - W
    - W
  - row:
    - W
    - 
    - 
    - 
    - 
    - 
    - 
    - 
    - 
    - 
    - 
    - 
    - 
    - W
    - W
    - 
    - 
    - 
    - 
    - 
    - 
    - 
    - 
    - 
    - 
    - 
    - 
    - W
    - 
    - 
    - 
    - 
    - 
    - 
    - 
    - 
    - 
    - 
    - 
    - 
    - 
    - 
    - 
    - 
    - 
    - 
    - 
    - 
    - 
    - 
    - 
    - 
    - 
    - 
    - 
    - 
  - row:
    - W
    - 
    - W
    - W
    - W
    - W
    - 
    - W
    - W
    - W
    - W
    - W
    - 
    - W
    - W
    - 
    - W
    - W
    - W
    - W
    - W
    - 
    - W
    - W
    - W
    - W
    - 
    - W
    - 
    - 
    - 
    - 
    - 
    - 
    - 
    - 
    - 
    - 
    - 
    - 
    - 
    - 
    - 
    - 
    - 
    - 
    - 
    - 
    - 
    - 
    - 
    - 
    - 
    - 
    - 
    - 
    - 
    - 
    - 
    - 
    - 
    - 
    - 
    - 
    - 
    - 
    - 
    - 
    - 
    - 
    - 
    - 
    - 
    - 
    - 
    - 
    - 
    - 
    - 
    - 
    - 
    - 
    - 
    - 
  - row:
    - W
    - 
    - W
    - W
    - W
    - W
    - 
    - W
    - W
    - W
    - W
    - W
    - 
    - W
    - W
    - 
    - W
    - W
    - W
    - W
    - W
    - 
    - W
    - W
    - W
    - W
    - 
    - W
    - 
    - 
    - 
    - 
    - 
    - 
    - 
    - 
    - 
    - 
    - 
    - 
    - 
    - 
    - 
    - 
    - 
    - 
    - 
    - 
    - 
    - 
    - 
    - 
    - 
    - 
    - 
    - 
    - 
    - 
    - 
    - 
    - 
    - 
    - 
    - 
    - 
    - 
    - 
    - 
    - 
    - 
    - 
    - 
    - 
    - 
    - 
    - 
    - 
    - 
    - 
    - 
    - 
    - 
    - 
    - 
    - 
    - 
    - 
    - 
    - 
    - 
    - 
    - 
    - 
    - 
    - 
    - 
    - 
    - 
    - 
    - 
    - 
    - 
    - 
    - 
    - 
    - 
    - 
    - 
    - 
    - 
    - 
    - 
  - row:
    - W
    - 
    - W
    - W
    - W
    - W
    - 
    - W
    - W
    - W
    - W
    - W
    - 
    - W
    - W
    - 
    - W
    - W
    - W
    - W
    - W
    - 
    - W
    - W
    - W
    - W
    - 
    - W
    - 
    - 
    - 
    - 
    - 
    - 
    - 
    - 
    - 
    - 
    - 
    - 
    - 
    - 
    - 
    - 
    - 
    - 
    - 
    - 
    - 
    - 
    - 
    - 
    - 
    - 
    - 
    - 
    - 
    - 
    - 
    - 
    - 
    - 
    - 
    - 
    - 
    - 
    - 
    - 
    - 
    - 
    - 
    - 
    - 
    - 
    - 
    - 
    - 
    - 
    - 
    - 
    - 
    - 
    - 
    - 
    - 
    - 
    - 
    - 
    - 
    - 
    - 
    - 
    - 
    - 
    - 
    - 
    - 
    - 
    - 
    - 
    - 
    - 
    - 
    - 
    - 
    - 
    - 
    - 
    - 
    - 
    - 
    - 
    - 
    - 
    - 
    - 
    - 
    - 
    - 
    - 
    - 
    - 
    - 
    - 
    - 
    - 
    - 
    - 
    - 
    - 
    - 
    - 
    - 
    - 
    - 
    - 
    - 
    - 
    - 
    - 
  - row:
    - W
    - 
    - 
    - 
    - 
    - 
    - 
    - 
    - 
    - 
    - 
    - 
    - 
    - 
    - 
    - 
    - 
    - 
    - 
    - 
    - 
    - 
    - 
    - 
    - 
    - 
    - 
    - W
    - 
    - 
    - 
    - 
    - 
    - 
    - 
    - 
    - 
    - 
    - 
    - 
    - 
    - 
    - 
    - 
    - 
    - 
    - 
    - 
    - 
    - 
    - 
    - 
    - 
    - 
    - 
    - 
    - 
    - 
    - 
    - 
    - 
    - 
    - 
    - 
    - 
    - 
    - 
    - 
    - 
    - 
    - 
    - 
    - 
    - 
    - 
    - 
    - 
    - 
    - 
    - 
    - 
    - 
    - 
    - 
    - 
    - 
    - 
    - 
    - 
    - 
    - 
    - 
    - 
    - 
    - 
    - 
    - 
    - 
    - 
    - 
    - 
    - 
    - 
    - 
    - 
    - 
    - 
    - 
    - 
    - 
    - 
    - 
    - 
    - 
    - 
    - 
    - 
    - 
    - 
    - 
    - 
    - 
    - 
    - 
    - 
    - 
    - 
    - 
    - 
    - 
    - 
    - 
    - 
    - 
    - 
    - 
    - 
    - 
    - 
    - 
    - 
    - 
    - 
    - 
    - 
    - 
    - 
    - 
    - 
    - 
    - 
    - 
    - 
    - 
    - 
    - 
    - 
    - 
    - 
    - 
    - 
    - 
    - 
    - 
    - 
    - 
    - 
    - 
  - row:
    - W
    - 
    - W
    - W
    - W
    - W
    - 
    - W
    - W
    - 
    - W
    - W
    - W
    - W
    - W
    - W
    - W
    - W
    - 
    - W
    - W
    - 
    - W
    - W
    - W
    - W
    - 
    - W
    - 
    - 
    - 
    - 
    - 
    - 
    - 
    - 
    - 
    - 
    - 
    - 
    - 
    - 
    - 
    - 
    - 
    - 
    - 
    - 
    - 
    - 
    - 
    - 
    - 
    - 
    - 
    - 
    - 
    - 
    - 
    - 
    - 
    - 
    - 
    - 
    - 
    - 
    - 
    - 
    - 
    - 
    - 
    - 
    - 
    - 
    - 
    - 
    - 
    - 
    - 
    - 
    - 
    - 
    - 
    - 
    - 
    - 
    - 
    - 
    - 
    - 
    - 
    - 
    - 
    - 
    - 
    - 
    - 
    - 
    - 
    - 
    - 
    - 
    - 
    - 
    - 
    - 
    - 
    - 
    - 
    - 
    - 
    - 
    - 
    - 
    - 
    - 
    - 
    - 
    - 
    - 
    - 
    - 
    - 
    - 
    - 
    - 
    - 
    - 
    - 
    - 
    - 
    - 
    - 
    - 
    - 
    - 
    - 
    - 
    - 
    - 
    - 
    - 
    - 
    - 
    - 
    - 
    - 
    - 
    - 
    - 
    - 
    - 
    - 
    - 
    - 
    - 
    - 
    - 
    - 
    - 
    - 
    - 
    - 
    - 
    - 
    - 
    - 
    - 
    - 
    - 
    - 
    - 
    - 
    - 
    - 
    - 
    - 
    - 
    - 
    - 
    - 
    - 
    - 
    - 
    - 
    - 
    - 
    - 
    - 
    - 
    - 
    - 
    - 
    - 
    - 
    - 
  - row:
    - W
    - 
    - W
    - W
    - W
    - W
    - 
    - W
    - W
    - 
    - W
    - W
    - W
    - W
    - W
    - W
    - W
    - W
    - 
    - W
    - W
    - 
    - W
    - W
    - W
    - W
    - 
    - W
    - 
    - 
    - 
    - 
    - 
    - 
    - 
    - 
    - 
    - 
    - 
    - 
    - 
    - 
    - 
    - 
    - 
    - 
    - 
    - 
    - 
    - 
    - 
    - 
    - 
    - 
    - 
    - 
    - 
    - 
    - 
    - 
    - 
    - 
    - 
    - 
    - 
    - 
    - 
    - 
    - 
    - 
    - 
    - 
    - 
    - 
    - 
    - 
    - 
    - 
    - 
    - 
    - 
    - 
    - 
    - 
    - 
    - 
    - 
    - 
    - 
    - 
    - 
    - 
    - 
    - 
    - 
    - 
    - 
    - 
    - 
    - 
    - 
    - 
    - 
    - 
    - 
    - 
    - 
    - 
    - 
    - 
    - 
    - 
    - 
    - 
    - 
    - 
    - 
    - 
    - 
    - 
    - 
    - 
    - 
    - 
    - 
    - 
    - 
    - 
    - 
    - 
    - 
    - 
    - 
    - 
    - 
    - 
    - 
    - 
    - 
    - 
    - 
    - 
    - 
    - 
    - 
    - 
    - 
    - 
    - 
    - 
    - 
    - 
    - 
    - 
    - 
    - 
    - 
    - 
    - 
    - 
    - 
    - 
    - 
    - 
    - 
    - 
    - 
    - 
    - 
    - 
    - 
    - 
    - 
    - 
    - 
    - 
    - 
    - 
    - 
    - 
    - 
    - 
    - 
    - 
    - 
    - 
    - 
    - 
    - 
    - 
    - 
    - 
    - 
    - 
    - 
    - 
    - 
    - 
    - 
    - 
    - 
    - 
    - 
    - 
    - 
    - 
    - 
    - 
    - 
    - 
    - 
    - 
    - 
    - 
    - 
    - 
    - 
    - 
    - 
    - 
    - 
    - 
    - 
    - 
  - row:
    - W
    - 
    - 
    - 
    - 
    - 
    - 
    - W
    - W
    - 
    - 
    - 
    - 
    - W
    - W
    - 
    - 
    - 
    - 
    - W
    - W
    - 
    - 
    - 
    - 
    - 
    - 
    - W
    - 
    - 
    - 
    - 
    - 
    - 
    - 
    - 
    - 
    - 
    - 
    - 
    - 
    - 
    - 
    - 
    - 
    - 
    - 
    - 
    - 
    - 
    - 
    - 
    - 
    - 
    - 
    - 
    - 
    - 
    - 
    - 
    - 
    - 
    - 
    - 
    - 
    - 
    - 
    - 
    - 
    - 
    - 
    - 
    - 
    - 
    - 
    - 
    - 
    - 
    - 
    - 
    - 
    - 
    - 
    - 
    - 
    - 
    - 
    - 
    - 
    - 
    - 
    - 
    - 
    - 
    - 
    - 
    - 
    - 
    - 
    - 
    - 
    - 
    - 
    - 
    - 
    - 
    - 
    - 
    - 
    - 
    - 
    - 
    - 
    - 
    - 
    - 
    - 
    - 
    - 
    - 
    - 
    - 
    - 
    - 
    - 
    - 
    - 
    - 
    - 
    - 
    - 
    - 
    - 
    - 
    - 
    - 
    - 
    - 
    - 
    - 
    - 
    - 
    - 
    - 
    - 
    - 
    - 
    - 
    - 
    - 
    - 
    - 
    - 
    - 
    - 
    - 
    - 
    - 
    - 
    - 
    - 
    - 
    - 
    - 
    - 
    - 
    - 
    - 
    - 
    - 
    - 
    - 
    - 
    - 
    - 
    - 
    - 
    - 
    - 
    - 
    - 
    - 
    - 
    - 
    - 
    - 
    - 
    - 
    - 
    - 
    - 
    - 
    - 
    - 
    - 
    - 
    - 
    - 
    - 
    - 
    - 
    - 
    - 
    - 
    - 
    - 
    - 
    - 
    - 
    - 
    - 
    - 
    - 
    - 
    - 
    - 
    - 
    - 
    - 
    - 
    - 
    - 
    - 
    - 
    - 
    - 
    - 
    - 
    - 
    - 
    - 
    - 
    - 
    - 
    - 
    - 
    - 
    - 
    - 
    - 
    - 
    - 
    - 
    - 
    - 
    - 
    - 
    - 
    - 
    - 
    - 
    - 
  - row:
    - W
    - W
    - W
    - W
    - W
    - W
    - 
    - W
    - W
    - W
    - W
    - W
    - 
    - W
    - W
    - 
    - W
    - W
    - W
    - W
    - W
    - 
    - W
    - W
    - W
    - W
    - W
    - W
    - 
    - 
    - 
    - 
    - 
    - 
    - 
    - 
    - 
    - 
    - 
    - 
    - 
    - 
    - 
    - 
    - 
    - 
    - 
    - 
    - 
    - 
    - 
    - 
    - 
    - 
    - 
    - 
    - 
    - 
    - 
    - 
    - 
    - 
    - 
    - 
    - 
    - 
    - 
    - 
    - 
    - 
    - 
    - 
    - 
    - 
    - 
    - 
    - 
    - 
    - 
    - 
    - 
    - 
    - 
    - 
    - 
    - 
    - 
    - 
    - 
    - 
    - 
    - 
    - 
    - 
    - 
    - 
    - 
    - 
    - 
    - 
    - 
    - 
    - 
    - 
    - 
    - 
    - 
    - 
    - 
    - 
    - 
    - 
    - 
    - 
    - 
    - 
    - 
    - 
    - 
    - 
    - 
    - 
    - 
    - 
    - 
    - 
    - 
    - 
    - 
    - 
    - 
    - 
    - 
    - 
    - 
    - 
    - 
    - 
    - 
    - 
    - 
    - 
    - 
    - 
    - 
    - 
    - 
    - 
    - 
    - 
    - 
    - 
    - 
    - 
    - 
    - 
    - 
    - 
    - 
    - 
    - 
    - 
    - 
    - 
    - 
    - 
    - 
    - 
    - 
    - 
    - 
    - 
    - 
    - 
    - 
    - 
    - 
    - 
    - 
    - 
    - 
    - 
    - 
    - 
    - 
    - 
    - 
    - 
    - 
    - 
    - 
    - 
    - 
    - 
    - 
    - 
    - 
    - 
    - 
    - 
    - 
    - 
    - 
    - 
    - 
    - 
    - 
    - 
    - 
    - 
    - 
    - 
    - 
    - 
    - 
    - 
    - 
    - 
    - 
    - 
    - 
    - 
    - 
    - 
    - 
    - 
    - 
    - 
    - 
    - 
    - 
    - 
    - 
    - 
    - 
    - 
    - 
    - 
    - 
    - 
    - 
    - 
    - 
    - 
    - 
    - 
    - 
    - 
    - 
    - 
    - 
    - 
    - 
    - 
    - 
    - 
    - 
    - 
    - 
    - 
    - 
    - 
    - 
    - 
    - 
    - 
    - 
    - 
    - 
    - 
    - 
    - 
    - 
    - 
    - 
    - 
    - 
    - 
    - 
    - 
  - row:
    - 
    - 
    - 
    - 
    - 
    - W
    - 
    - W
    - W
    - W
    - W
    - W
    - 
    - W
    - W
    - 
    - W
    - W
    - W
    - W
    - W
    - 
    - W
    - 
    - 
    - 
    - 
    - 
    - 
    - 
    - 
    - 
    - 
    - 
    - 
    - 
    - 
    - 
    - 
    - 
    - 
    - 
    - 
    - 
    - 
    - 
    - 
    - 
    - 
    - 
    - 
    - 
    - 
    - 
    - 
    - 
    - 
    - 
    - 
    - 
    - 
    - 
    - 
    - 
    - 
    - 
    - 
    - 
    - 
    - 
    - 
    - 
    - 
    - 
    - 
    - 
    - 
    - 
    - 
    - 
    - 
    - 
    - 
    - 
    - 
    - 
    - 
    - 
    - 
    - 
    - 
    - 
    - 
    - 
    - 
    - 
    - 
    - 
    - 
    - 
    - 
    - 
    - 
    - 
    - 
    - 
    - 
    - 
    - 
    - 
    - 
    - 
    - 
    - 
    - 
    - 
    - 
    - 
    - 
    - 
    - 
    - 
    - 
    - 
    - 
    - 
    - 
    - 
    - 
    - 
    - 
    - 
    - 
    - 
    - 
    - 
    - 
    - 
    - 
    - 
    - 
    - 
    - 
    - 
    - 
    - 
    - 
    - 
    - 
    - 
    - 
    - 
    - 
    - 
    - 
    - 
    - 
    - 
    - 
    - 
    - 
    - 
    - 
    - 
    - 
    - 
    - 
    - 
    - 
    - 
    - 
    - 
    - 
    - 
    - 
    - 
    - 
    - 
    - 
    - 
    - 
    - 
    - 
    - 
    - 
    - 
    - 
    - 
    - 
    - 
    - 
    - 
    - 
    - 
    - 
    - 
    - 
    - 
    - 
    - 
    - 
    - 
    - 
    - 
    - 
    - 
    - 
    - 
    - 
    - 
    - 
    - 
    - 
    - 
    - 
    - 
    - 
    - 
    - 
    - 
    - 
    - 
    - 
    - 
    - 
    - 
    - 
    - 
    - 
    - 
    - 
    - 
    - 
    - 
    - 
    - 
    - 
    - 
    - 
    - 
    - 
    - 
    - 
    - 
    - 
    - 
    - 
    - 
    - 
    - 
    - 
    - 
    - 
    - 
    - 
    - 
    - 
    - 
    - 
    - 
    - 
    - 
    - 
    - 
    - 
    - 
    - 
    - 
    - 
    - 
    - 
    - 
    - 
    - 
    - 
    - 
    - 
    - 
    - 
    - 
    - 
    - 
    - 
    - 
    - 
    - 
    - 
    - 
    - 
    - 
    - 
    - 
    - 
    - 
    - 
    - 
    - 
    - 
    - 
    - 
    - 
    - 
    - 
    - 
    - 
    - 
    - 
    - 
  - row:
    - 
    - 
    - 
    - 
    - 
    - W
    - 
    - W
    - W
    - 
    - 
    - 
    - 
    - 
    - 
    - 
    - 
    - 
    - 
    - W
    - W
    - 
    - W
    - 
    - 
    - 
    - 
    - 
    - 
    - 
    - 
    - 
    - 
    - 
    - 
    - 
    - 
    - 
    - 
    - 
    - 
    - 
    - 
    - 
    - 
    - 
    - 
    - 
    - 
    - 
    - 
    - 
    - 
    - 
    - 
    - 
    - 
    - 
    - 
    - 
    - 
    - 
    - 
    - 
    - 
    - 
    - 
    - 
    - 
    - 
    - 
    - 
    - 
    - 
    - 
    - 
    - 
    - 
    - 
    - 
    - 
    - 
    - 
    - 
    - 
    - 
    - 
    - 
    - 
    - 
    - 
    - 
    - 
    - 
    - 
    - 
    - 
    - 
    - 
    - 
    - 
    - 
    - 
    - 
    - 
    - 
    - 
    - 
    - 
    - 
    - 
    - 
    - 
    - 
    - 
    - 
    - 
    - 
    - 
    - 
    - 
    - 
    - 
    - 
    - 
    - 
    - 
    - 
    - 
    - 
    - 
    - 
    - 
    - 
    - 
    - 
    - 
    - 
    - 
    - 
    - 
    - 
    - 
    - 
    - 
    - 
    - 
    - 
    - 
    - 
    - 
    - 
    - 
    - 
    - 
    - 
    - 
    - 
    - 
    - 
    - 
    - 
    - 
    - 
    - 
    - 
    - 
    - 
    - 
    - 
    - 
    - 
    - 
    - 
    - 
    - 
    - 
    - 
    - 
    - 
    - 
    - 
    - 
    - 
    - 
    - 
    - 
    - 
    - 
    - 
    - 
    - 
    - 
    - 
    - 
    - 
    - 
    - 
    - 
    - 
    - 
    - 
    - 
    - 
    - 
    - 
    - 
    - 
    - 
    - 
    - 
    - 
    - 
    - 
    - 
    - 
    - 
    - 
    - 
    - 
    - 
    - 
    - 
    - 
    - 
    - 
    - 
    - 
    - 
    - 
    - 
    - 
    - 
    - 
    - 
    - 
    - 
    - 
    - 
    - 
    - 
    - 
    - 
    - 
    - 
    - 
    - 
    - 
    - 
    - 
    - 
    - 
    - 
    - 
    - 
    - 
    - 
    - 
    - 
    - 
    - 
    - 
    - 
    - 
    - 
    - 
    - 
    - 
    - 
    - 
    - 
    - 
    - 
    - 
    - 
    - 
    - 
    - 
    - 
    - 
    - 
    - 
    - 
    - 
    - 
    - 
    - 
    - 
    - 
    - 
    - 
    - 
    - 
    - 
    - 
    - 
    - 
    - 
    - 
    - 
    - 
    - 
    - 
    - 
    - 
    - 
    - 
    - 
    - 
    - 
    - 
    - 
    - 
    - 
    - 
    - 
    - 
    - 
    - 
    - 
    - 
    - 
    - 
    - 
    - 
    - 
    - 
    - 
    - 
    - 
    - 
    - 
    - 
    - 
    - 
    - 
  - row:
    - 
    - 
    - 
    - 
    - 
    - W
    - 
    - W
    - W
    - 
    - 
    - 
    - 
    - 
    - 
    - 
    - 
    - 
    - 
    - W
    - W
    - 
    - W
    - 
    - 
    - 
    - 
    - 
    - 
    - 
    - 
    - 
    - 
    - 
    - 
    - 
    - 
    - 
    - 
    - 
    - 
    - 
    - 
    - 
    - 
    - 
    - 
    - 
    - 
    - 
    - 
    - 
    - 
    - 
    - 
    - 
    - 
    - 
    - 
    - 
    - 
    - 
    - 
    - 
    - 
    - 
    - 
    - 
    - 
    - 
    - 
    - 
    - 
    - 
    - 
    - 
    - 
    - 
    - 
    - 
    - 
    - 
    - 
    - 
    - 
    - 
    - 
    - 
    - 
    - 
    - 
    - 
    - 
    - 
    - 
    - 
    - 
    - 
    - 
    - 
    - 
    - 
    - 
    - 
    - 
    - 
    - 
    - 
    - 
    - 
    - 
    - 
    - 
    - 
    - 
    - 
    - 
    - 
    - 
    - 
    - 
    - 
    - 
    - 
    - 
    - 
    - 
    - 
    - 
    - 
    - 
    - 
    - 
    - 
    - 
    - 
    - 
    - 
    - 
    - 
    - 
    - 
    - 
    - 
    - 
    - 
    - 
    - 
    - 
    - 
    - 
    - 
    - 
    - 
    - 
    - 
    - 
    - 
    - 
    - 
    - 
    - 
    - 
    - 
    - 
    - 
    - 
    - 
    - 
    - 
    - 
    - 
    - 
    - 
    - 
    - 
    - 
    - 
    - 
    - 
    - 
    - 
    - 
    - 
    - 
    - 
    - 
    - 
    - 
    - 
    - 
    - 
    - 
    - 
    - 
    - 
    - 
    - 
    - 
    - 
    - 
    - 
    - 
    - 
    - 
    - 
    - 
    - 
    - 
    - 
    - 
    - 
    - 
    - 
    - 
    - 
    - 
    - 
    - 
    - 
    - 
    - 
    - 
    - 
    - 
    - 
    - 
    - 
    - 
    - 
    - 
    - 
    - 
    - 
    - 
    - 
    - 
    - 
    - 
    - 
    - 
    - 
    - 
    - 
    - 
    - 
    - 
    - 
    - 
    - 
    - 
    - 
    - 
    - 
    - 
    - 
    - 
    - 
    - 
    - 
    - 
    - 
    - 
    - 
    - 
    - 
    - 
    - 
    - 
    - 
    - 
    - 
    - 
    - 
    - 
    - 
    - 
    - 
    - 
    - 
    - 
    - 
    - 
    - 
    - 
    - 
    - 
    - 
    - 
    - 
    - 
    - 
    - 
    - 
    - 
    - 
    - 
    - 
    - 
    - 
    - 
    - 
    - 
    - 
    - 
    - 
    - 
    - 
    - 
    - 
    - 
    - 
    - 
    - 
    - 
    - 
    - 
    - 
    - 
    - 
    - 
    - 
    - 
    - 
    - 
    - 
    - 
    - 
    - 
    - 
    - 
    - 
    - 
    - 
    - 
    - 
    - 
    - 
    - 
    - 
    - 
    - 
    - 
    - 
    - 
    - 
    - 
    - 
    - 
    - 
    - 
    - 
    - 
    - 
    - 
    - 
    - 
    - 
    - 
    - 
    - 
    - 
    - 
    - 
  - row:
    - W
    - W
    - W
    - W
    - W
    - W
    - 
    - W
    - W
    - 
    - 
    - 
    - 
    - 
    - 
    - 
    - 
    - 
    - 
    - W
    - W
    - 
    - W
    - W
    - W
    - W
    - W
    - W
    - 
    - 
    - 
    - 
    - 
    - 
    - 
    - 
    - 
    - 
    - 
    - 
    - 
    - 
    - 
    - 
    - 
    - 
    - 
    - 
    - 
    - 
    - 
    - 
    - 
    - 
    - 
    - 
    - 
    - 
    - 
    - 
    - 
    - 
    - 
    - 
    - 
    - 
    - 
    - 
    - 
    - 
    - 
    - 
    - 
    - 
    - 
    - 
    - 
    - 
    - 
    - 
    - 
    - 
    - 
    - 
    - 
    - 
    - 
    - 
    - 
    - 
    - 
    - 
    - 
    - 
    - 
    - 
    - 
    - 
    - 
    - 
    - 
    - 
    - 
    - 
    - 
    - 
    - 
    - 
    - 
    - 
    - 
    - 
    - 
    - 
    - 
    - 
    - 
    - 
    - 
    - 
    - 
    - 
    - 
    - 
    - 
    - 
    - 
    - 
    - 
    - 
    - 
    - 
    - 
    - 
    - 
    - 
    - 
    - 
    - 
    - 
    - 
    - 
    - 
    - 
    - 
    - 
    - 
    - 
    - 
    - 
    - 
    - 
    - 
    - 
    - 
    - 
    - 
    - 
    - 
    - 
    - 
    - 
    - 
    - 
    - 
    - 
    - 
    - 
    - 
    - 
    - 
    - 
    - 
    - 
    - 
    - 
    - 
    - 
    - 
    - 
    - 
    - 
    - 
    - 
    - 
    - 
    - 
    - 
    - 
    - 
    - 
    - 
    - 
    - 
    - 
    - 
    - 
    - 
    - 
    - 
    - 
    - 
    - 
    - 
    - 
    - 
    - 
    - 
    - 
    - 
    - 
    - 
    - 
    - 
    - 
    - 
    - 
    - 
    - 
    - 
    - 
    - 
    - 
    - 
    - 
    - 
    - 
    - 
    - 
    - 
    - 
    - 
    - 
    - 
    - 
    - 
    - 
    - 
    - 
    - 
    - 
    - 
    - 
    - 
    - 
    - 
    - 
    - 
    - 
    - 
    - 
    - 
    - 
    - 
    - 
    - 
    - 
    - 
    - 
    - 
    - 
    - 
    - 
    - 
    - 
    - 
    - 
    - 
    - 
    - 
    - 
    - 
    - 
    - 
    - 
    - 
    - 
    - 
    - 
    - 
    - 
    - 
    - 
    - 
    - 
    - 
    - 
    - 
    - 
    - 
    - 
    - 
    - 
    - 
    - 
    - 
    - 
    - 
    - 
    - 
    - 
    - 
    - 
    - 
    - 
    - 
    - 
    - 
    - 
    - 
    - 
    - 
    - 
    - 
    - 
    - 
    - 
    - 
    - 
    - 
    - 
    - 
    - 
    - 
    - 
    - 
    - 
    - 
    - 
    - 
    - 
    - 
    - 
    - 
    - 
    - 
    - 
    - 
    - 
    - 
    - 
    - 
    - 
    - 
    - 
    - 
    - 
    - 
    - 
    - 
    - 
    - 
    - 
    - 
    - 
    - 
    - 
    - 
    - 
    - 
    - 
    - 
    - 
    - 
    - 
    - 
    - 
    - 
    - 
    - 
    - 
    - 
    - 
    - 
    - 
    - 
    - 
    - 
    - 
    - 
    - 
    - 
    - 
    - 
    - 
    - 
    - 
    - 
    - 
    - 
    - 
    - 
  - row:
    - 
    - 
    - 
    - 
    - 
    - 
    - 
    - 
    - 
    - 
    - 
    - 
    - 
    - 
    - 
    - 
    - 
    - 
    - 
    - 
    - 
    - 
    - 
    - 
    - 
    - 
    - 
    - 
    - 
    - 
    - 
    - 
    - 
    - 
    - 
    - 
    - 
    - 
    - 
    - 
    - 
    - 
    - 
    - 
    - 
    - 
    - 
    - 
    - 
    - 
    - 
    - 
    - 
    - 
    - 
    - 
    - 
    - 
    - 
    - 
    - 
    - 
    - 
    - 
    - 
    - 
    - 
    - 
    - 
    - 
    - 
    - 
    - 
    - 
    - 
    - 
    - 
    - 
    - 
    - 
    - 
    - 
    - 
    - 
    - 
    - 
    - 
    - 
    - 
    - 
    - 
    - 
    - 
    - 
    - 
    - 
    - 
    - 
    - 
    - 
    - 
    - 
    - 
    - 
    - 
    - 
    - 
    - 
    - 
    - 
    - 
    - 
    - 
    - 
    - 
    - 
    - 
    - 
    - 
    - 
    - 
    - 
    - 
    - 
    - 
    - 
    - 
    - 
    - 
    - 
    - 
    - 
    - 
    - 
    - 
    - 
    - 
    - 
    - 
    - 
    - 
    - 
    - 
    - 
    - 
    - 
    - 
    - 
    - 
    - 
    - 
    - 
    - 
    - 
    - 
    - 
    - 
    - 
    - 
    - 
    - 
    - 
    - 
    - 
    - 
    - 
    - 
    - 
    - 
    - 
    - 
    - 
    - 
    - 
    - 
    - 
    - 
    - 
    - 
    - 
    - 
    - 
    - 
    - 
    - 
    - 
    - 
    - 
    - 
    - 
    - 
    - 
    - 
    - 
    - 
    - 
    - 
    - 
    - 
    - 
    - 
    - 
    - 
    - 
    - 
    - 
    - 
    - 
    - 
    - 
    - 
    - 
    - 
    - 
    - 
    - 
    - 
    - 
    - 
    - 
    - 
    - 
    - 
    - 
    - 
    - 
    - 
    - 
    - 
    - 
    - 
    - 
    - 
    - 
    - 
    - 
    - 
    - 
    - 
    - 
    - 
    - 
    - 
    - 
    - 
    - 
    - 
    - 
    - 
    - 
    - 
    - 
    - 
    - 
    - 
    - 
    - 
    - 
    - 
    - 
    - 
    - 
    - 
    - 
    - 
    - 
    - 
    - 
    - 
    - 
    - 
    - 
    - 
    - 
    - 
    - 
    - 
    - 
    - 
    - 
    - 
    - 
    - 
    - 
    - 
    - 
    - 
    - 
    - 
    - 
    - 
    - 
    - 
    - 
    - 
    - 
    - 
    - 
    - 
    - 
    - 
    - 
    - 
    - 
    - 
    - 
    - 
    - 
    - 
    - 
    - 
    - 
    - 
    - 
    - 
    - 
    - 
    - 
    - 
    - 
    - 
    - 
    - 
    - 
    - 
    - 
    - 
    - 
    - 
    - 
    - 
    - 
    - 
    - 
    - 
    - 
    - 
    - 
    - 
    - 
    - 
    - 
    - 
    - 
    - 
    - 
    - 
    - 
    - 
    - 
    - 
    - 
    - 
    - 
    - 
    - 
    - 
    - 
    - 
    - 
    - 
    - 
    - 
    - 
    - 
    - 
    - 
    - 
    - 
    - 
    - 
    - 
    - 
    - 
    - 
    - 
    - 
    - 
    - 
    - 
    - 
    - 
    - 
    - 
    - 
    - 
    - 
    - 
    - 
    - 
    - 
    - 
    - 
    - 
    - 
    - 
    - 
    - 
    - 
    - 
    - 
    - 
    - 
    - 
    - 
    - 
    - 
    - 
    - 
    - 
    - 
    - 
    - 
    - 
    - 
    - 
    - 
    - 
    - 
    - 
  - row:
    - W
    - W
    - W
    - W
    - W
    - W
    - 
    - W
    - W
    - 
    - 
    - 
    - 
    - 
    - 
    - 
    - 
    - 
    - 
    - W
    - W
    - 
    - W
    - W
    - W
    - W
    - W
    - W
    - 
    - 
    - 
    - 
    - 
    - 
    - 
    - 
    - 
    - 
    - 
    - 
    - 
    - 
    - 
    - 
    - 
    - 
    - 
    - 
    - 
    - 
    - 
    - 
    - 
    - 
    - 
    - 
    - 
    - 
    - 
    - 
    - 
    - 
    - 
    - 
    - 
    - 
    - 
    - 
    - 
    - 
    - 
    - 
    - 
    - 
    - 
    - 
    - 
    - 
    - 
    - 
    - 
    - 
    - 
    - 
    - 
    - 
    - 
    - 
    - 
    - 
    - 
    - 
    - 
    - 
    - 
    - 
    - 
    - 
    - 
    - 
    - 
    - 
    - 
    - 
    - 
    - 
    - 
    - 
    - 
    - 
    - 
    - 
    - 
    - 
    - 
    - 
    - 
    - 
    - 
    - 
    - 
    - 
    - 
    - 
    - 
    - 
    - 
    - 
    - 
    - 
    - 
    - 
    - 
    - 
    - 
    - 
    - 
    - 
    - 
    - 
    - 
    - 
    - 
    - 
    - 
    - 
    - 
    - 
    - 
    - 
    - 
    - 
    - 
    - 
    - 
    - 
    - 
    - 
    - 
    - 
    - 
    - 
    - 
    - 
    - 
    - 
    - 
    - 
    - 
    - 
    - 
    - 
    - 
    - 
    - 
    - 
    - 
    - 
    - 
    - 
    - 
    - 
    - 
    - 
    - 
    - 
    - 
    - 
    - 
    - 
    - 
    - 
    - 
    - 
    - 
    - 
    - 
    - 
    - 
    - 
    - 
    - 
    - 
    - 
    - 
    - 
    - 
    - 
    - 
    - 
    - 
    - 
    - 
    - 
    - 
    - 
    - 
    - 
    - 
    - 
    - 
    - 
    - 
    - 
    - 
    - 
    - 
    - 
    - 
    - 
    - 
    - 
    - 
    - 
    - 
    - 
    - 
    - 
    - 
    - 
    - 
    - 
    - 
    - 
    - 
    - 
    - 
    - 
    - 
    - 
    - 
    - 
    - 
    - 
    - 
    - 
    - 
    - 
    - 
    - 
    - 
    - 
    - 
    - 
    - 
    - 
    - 
    - 
    - 
    - 
    - 
    - 
    - 
    - 
    - 
    - 
    - 
    - 
    - 
    - 
    - 
    - 
    - 
    - 
    - 
    - 
    - 
    - 
    - 
    - 
    - 
    - 
    - 
    - 
    - 
    - 
    - 
    - 
    - 
    - 
    - 
    - 
    - 
    - 
    - 
    - 
    - 
    - 
    - 
    - 
    - 
    - 
    - 
    - 
    - 
    - 
    - 
    - 
    - 
    - 
    - 
    - 
    - 
    - 
    - 
    - 
    - 
    - 
    - 
    - 
    - 
    - 
    - 
    - 
    - 
    - 
    - 
    - 
    - 
    - 
    - 
    - 
    - 
    - 
    - 
    - 
    - 
    - 
    - 
    - 
    - 
    - 
    - 
    - 
    - 
    - 
    - 
    - 
    - 
    - 
    - 
    - 
    - 
    - 
    - 
    - 
    - 
    - 
    - 
    - 
    - 
    - 
    - 
    - 
    - 
    - 
    - 
    - 
    - 
    - 
    - 
    - 
    - 
    - 
    - 
    - 
    - 
    - 
    - 
    - 
    - 
    - 
    - 
    - 
    - 
    - 
    - 
    - 
    - 
    - 
    - 
    - 
    - 
    - 
    - 
    - 
    - 
    - 
    - 
    - 
    - 
    - 
    - 
    - 
    - 
    - 
    - 
    - 
    - 
    - 
    - 
    - 
    - 
    - 
    - 
    - 
    - 
    - 
    - 
    - 
    - 
    - 
    - 
    - 
    - 
    - 
    - 
    - 
    - 
    - 
    - 
    - 
    - 
    - 
    - 
    - 
    - 
    - 
  - row:
    - 
    - 
    - 
    - 
    - 
    - W
    - 
    - W
    - W
    - 
    - 
    - 
    - 
    - 
    - 
    - 
    - 
    - 
    - 
    - W
    - W
    - 
    - W
    - 
    - 
    - 
    - 
    - W
    - 
    - 
    - 
    - 
    - 
    - 
    - 
    - 
    - 
    - 
    - 
    - 
    - 
    - 
    - 
    - 
    - 
    - 
    - 
    - 
    - 
    - 
    - 
    - 
    - 
    - 
    - 
    - 
    - 
    - 
    - 
    - 
    - 
    - 
    - 
    - 
    - 
    - 
    - 
    - 
    - 
    - 
    - 
    - 
    - 
    - 
    - 
    - 
    - 
    - 
    - 
    - 
    - 
    - 
    - 
    - 
    - 
    - 
    - 
    - 
    - 
    - 
    - 
    - 
    - 
    - 
    - 
    - 
    - 
    - 
    - 
    - 
    - 
    - 
    - 
    - 
    - 
    - 
    - 
    - 
    - 
    - 
    - 
    - 
    - 
    - 
    - 
    - 
    - 
    - 
    - 
    - 
    - 
    - 
    - 
    - 
    - 
    - 
    - 
    - 
    - 
    - 
    - 
    - 
    - 
    - 
    - 
    - 
    - 
    - 
    - 
    - 
    - 
    - 
    - 
    - 
    - 
    - 
    - 
    - 
    - 
    - 
    - 
    - 
    - 
    - 
    - 
    - 
    - 
    - 
    - 
    - 
    - 
    - 
    - 
    - 
    - 
    - 
    - 
    - 
    - 
    - 
    - 
    - 
    - 
    - 
    - 
    - 
    - 
    - 
    - 
    - 
    - 
    - 
    - 
    - 
    - 
    - 
    - 
    - 
    - 
    - 
    - 
    - 
    - 
    - 
    - 
    - 
    - 
    - 
    - 
    - 
    - 
    - 
    - 
    - 
    - 
    - 
    - 
    - 
    - 
    - 
    - 
    - 
    - 
    - 
    - 
    - 
    - 
    - 
    - 
    - 
    - 
    - 
    - 
    - 
    - 
    - 
    - 
    - 
    - 
    - 
    - 
    - 
    - 
    - 
    - 
    - 
    - 
    - 
    - 
    - 
    - 
    - 
    - 
    - 
    - 
    - 
    - 
    - 
    - 
    - 
    - 
    - 
    - 
    - 
    - 
    - 
    - 
    - 
    - 
    - 
    - 
    - 
    - 
    - 
    - 
    - 
    - 
    - 
    - 
    - 
    - 
    - 
    - 
    - 
    - 
    - 
    - 
    - 
    - 
    - 
    - 
    - 
    - 
    - 
    - 
    - 
    - 
    - 
    - 
    - 
    - 
    - 
    - 
    - 
    - 
    - 
    - 
    - 
    - 
    - 
    - 
    - 
    - 
    - 
    - 
    - 
    - 
    - 
    - 
    - 
    - 
    - 
    - 
    - 
    - 
    - 
    - 
    - 
    - 
    - 
    - 
    - 
    - 
    - 
    - 
    - 
    - 
    - 
    - 
    - 
    - 
    - 
    - 
    - 
    - 
    - 
    - 
    - 
    - 
    - 
    - 
    - 
    - 
    - 
    - 
    - 
    - 
    - 
    - 
    - 
    - 
    - 
    - 
    - 
    - 
    - 
    - 
    - 
    - 
    - 
    - 
    - 
    - 
    - 
    - 
    - 
    - 
    - 
    - 
    - 
    - 
    - 
    - 
    - 
    - 
    - 
    - 
    - 
    - 
    - 
    - 
    - 
    - 
    - 
    - 
    - 
    - 
    - 
    - 
    - 
    - 
    - 
    - 
    - 
    - 
    - 
    - 
    - 
    - 
    - 
    - 
    - 
    - 
    - 
    - 
    - 
    - 
    - 
    - 
    - 
    - 
    - 
    - 
    - 
    - 
    - 
    - 
    - 
    - 
    - 
    - 
    - 
    - 
    - 
    - 
    - 
    - 
    - 
    - 
    - 
    - 
    - 
    - 
    - 
    - 
    - 
    - 
    - 
    - 
    - 
    - 
    - 
    - 
    - 
    - 
    - 
    - 
    - 
    - 
    - 
    - 
    - 
    - 
    - 
    - 
    - 
    - 
    - 
    - 
    - 
    - 
    - 
    - 
    - 
    - 
    - 
    - 
    - 
    - 
    - 
    - 
    - 
    - 
    - 
    - 
    - 
  - row:
    - 
    - 
    - 
    - 
    - 
    - W
    - 
    - W
    - W
    - 
    - 
    - 
    - 
    - 
    - 
    - 
    - 
    - 
    - 
    - W
    - W
    - 
    - W
    - 
    - 
    - 
    - 
    - W
    - 
    - 
    - 
    - 
    - 
    - 
    - 
    - 
    - 
    - 
    - 
    - 
    - 
    - 
    - 
    - 
    - 
    - 
    - 
    - 
    - 
    - 
    - 
    - 
    - 
    - 
    - 
    - 
    - 
    - 
    - 
    - 
    - 
    - 
    - 
    - 
    - 
    - 
    - 
    - 
    - 
    - 
    - 
    - 
    - 
    - 
    - 
    - 
    - 
    - 
    - 
    - 
    - 
    - 
    - 
    - 
    - 
    - 
    - 
    - 
    - 
    - 
    - 
    - 
    - 
    - 
    - 
    - 
    - 
    - 
    - 
    - 
    - 
    - 
    - 
    - 
    - 
    - 
    - 
    - 
    - 
    - 
    - 
    - 
    - 
    - 
    - 
    - 
    - 
    - 
    - 
    - 
    - 
    - 
    - 
    - 
    - 
    - 
    - 
    - 
    - 
    - 
    - 
    - 
    - 
    - 
    - 
    - 
    - 
    - 
    - 
    - 
    - 
    - 
    - 
    - 
    - 
    - 
    - 
    - 
    - 
    - 
    - 
    - 
    - 
    - 
    - 
    - 
    - 
    - 
    - 
    - 
    - 
    - 
    - 
    - 
    - 
    - 
    - 
    - 
    - 
    - 
    - 
    - 
    - 
    - 
    - 
    - 
    - 
    - 
    - 
    - 
    - 
    - 
    - 
    - 
    - 
    - 
    - 
    - 
    - 
    - 
    - 
    - 
    - 
    - 
    - 
    - 
    - 
    - 
    - 
    - 
    - 
    - 
    - 
    - 
    - 
    - 
    - 
    - 
    - 
    - 
    - 
    - 
    - 
    - 
    - 
    - 
    - 
    - 
    - 
    - 
    - 
    - 
    - 
    - 
    - 
    - 
    - 
    - 
    - 
    - 
    - 
    - 
    - 
    - 
    - 
    - 
    - 
    - 
    - 
    - 
    - 
    - 
    - 
    - 
    - 
    - 
    - 
    - 
    - 
    - 
    - 
    - 
    - 
    - 
    - 
    - 
    - 
    - 
    - 
    - 
    - 
    - 
    - 
    - 
    - 
    - 
    - 
    - 
    - 
    - 
    - 
    - 
    - 
    - 
    - 
    - 
    - 
    - 
    - 
    - 
    - 
    - 
    - 
    - 
    - 
    - 
    - 
    - 
    - 
    - 
    - 
    - 
    - 
    - 
    - 
    - 
    - 
    - 
    - 
    - 
    - 
    - 
    - 
    - 
    - 
    - 
    - 
    - 
    - 
    - 
    - 
    - 
    - 
    - 
    - 
    - 
    - 
    - 
    - 
    - 
    - 
    - 
    - 
    - 
    - 
    - 
    - 
    - 
    - 
    - 
    - 
    - 
    - 
    - 
    - 
    - 
    - 
    - 
    - 
    - 
    - 
    - 
    - 
    - 
    - 
    - 
    - 
    - 
    - 
    - 
    - 
    - 
    - 
    - 
    - 
    - 
    - 
    - 
    - 
    - 
    - 
    - 
    - 
    - 
    - 
    - 
    - 
    - 
    - 
    - 
    - 
    - 
    - 
    - 
    - 
    - 
    - 
    - 
    - 
    - 
    - 
    - 
    - 
    - 
    - 
    - 
    - 
    - 
    - 
    - 
    - 
    - 
    - 
    - 
    - 
    - 
    - 
    - 
    - 
    - 
    - 
    - 
    - 
    - 
    - 
    - 
    - 
    - 
    - 
    - 
    - 
    - 
    - 
    - 
    - 
    - 
    - 
    - 
    - 
    - 
    - 
    - 
    - 
    - 
    - 
    - 
    - 
    - 
    - 
    - 
    - 
    - 
    - 
    - 
    - 
    - 
    - 
    - 
    - 
    - 
    - 
    - 
    - 
    - 
    - 
    - 
    - 
    - 
    - 
    - 
    - 
    - 
    - 
    - 
    - 
    - 
    - 
    - 
    - 
    - 
    - 
    - 
    - 
    - 
    - 
    - 
    - 
    - 
    - 
    - 
    - 
    - 
    - 
    - 
    - 
    - 
    - 
    - 
    - 
    - 
    - 
    - 
    - 
    - 
    - 
    - 
    - 
    - 
    - 
    - 
    - 
    - 
    - 
    - 
    - 
    - 
    - 
    - 
    - 
    - 
    - 
    - 
    - 
    - 
  - row:
    - 
    - 
    - 
    - 
    - 
    - W
    - 
    - W
    - W
    - 
    - W
    - W
    - W
    - W
    - W
    - W
    - W
    - W
    - 
    - W
    - W
    - 
    - W
    - 
    - 
    - 
    - 
    - W
    - 
    - 
    - 
    - 
    - 
    - 
    - 
    - 
    - 
    - 
    - 
    - 
    - 
    - 
    - 
    - 
    - 
    - 
    - 
    - 
    - 
    - 
    - 
    - 
    - 
    - 
    - 
    - 
    - 
    - 
    - 
    - 
    - 
    - 
    - 
    - 
    - 
    - 
    - 
    - 
    - 
    - 
    - 
    - 
    - 
    - 
    - 
    - 
    - 
    - 
    - 
    - 
    - 
    - 
    - 
    - 
    - 
    - 
    - 
    - 
    - 
    - 
    - 
    - 
    - 
    - 
    - 
    - 
    - 
    - 
    - 
    - 
    - 
    - 
    - 
    - 
    - 
    - 
    - 
    - 
    - 
    - 
    - 
    - 
    - 
    - 
    - 
    - 
    - 
    - 
    - 
    - 
    - 
    - 
    - 
    - 
    - 
    - 
    - 
    - 
    - 
    - 
    - 
    - 
    - 
    - 
    - 
    - 
    - 
    - 
    - 
    - 
    - 
    - 
    - 
    - 
    - 
    - 
    - 
    - 
    - 
    - 
    - 
    - 
    - 
    - 
    - 
    - 
    - 
    - 
    - 
    - 
    - 
    - 
    - 
    - 
    - 
    - 
    - 
    - 
    - 
    - 
    - 
    - 
    - 
    - 
    - 
    - 
    - 
    - 
    - 
    - 
    - 
    - 
    - 
    - 
    - 
    - 
    - 
    - 
    - 
    - 
    - 
    - 
    - 
    - 
    - 
    - 
    - 
    - 
    - 
    - 
    - 
    - 
    - 
    - 
    - 
    - 
    - 
    - 
    - 
    - 
    - 
    - 
    - 
    - 
    - 
    - 
    - 
    - 
    - 
    - 
    - 
    - 
    - 
    - 
    - 
    - 
    - 
    - 
    - 
    - 
    - 
    - 
    - 
    - 
    - 
    - 
    - 
    - 
    - 
    - 
    - 
    - 
    - 
    - 
    - 
    - 
    - 
    - 
    - 
    - 
    - 
    - 
    - 
    - 
    - 
    - 
    - 
    - 
    - 
    - 
    - 
    - 
    - 
    - 
    - 
    - 
    - 
    - 
    - 
    - 
    - 
    - 
    - 
    - 
    - 
    - 
    - 
    - 
    - 
    - 
    - 
    - 
    - 
    - 
    - 
    - 
    - 
    - 
    - 
    - 
    - 
    - 
    - 
    - 
    - 
    - 
    - 
    - 
    - 
    - 
    - 
    - 
    - 
    - 
    - 
    - 
    - 
    - 
    - 
    - 
    - 
    - 
    - 
    - 
    - 
    - 
    - 
    - 
    - 
    - 
    - 
    - 
    - 
    - 
    - 
    - 
    - 
    - 
    - 
    - 
    - 
    - 
    - 
    - 
    - 
    - 
    - 
    - 
    - 
    - 
    - 
    - 
    - 
    - 
    - 
    - 
    - 
    - 
    - 
    - 
    - 
    - 
    - 
    - 
    - 
    - 
    - 
    - 
    - 
    - 
    - 
    - 
    - 
    - 
    - 
    - 
    - 
    - 
    - 
    - 
    - 
    - 
    - 
    - 
    - 
    - 
    - 
    - 
    - 
    - 
    - 
    - 
    - 
    - 
    - 
    - 
    - 
    - 
    - 
    - 
    - 
    - 
    - 
    - 
    - 
    - 
    - 
    - 
    - 
    - 
    - 
    - 
    - 
    - 
    - 
    - 
    - 
    - 
    - 
    - 
    - 
    - 
    - 
    - 
    - 
    - 
    - 
    - 
    - 
    - 
    - 
    - 
    - 
    - 
    - 
    - 
    - 
    - 
    - 
    - 
    - 
    - 
    - 
    - 
    - 
    - 
    - 
    - 
    - 
    - 
    - 
    - 
    - 
    - 
    - 
    - 
    - 
    - 
    - 
    - 
    - 
    - 
    - 
    - 
    - 
    - 
    - 
    - 
    - 
    - 
    - 
    - 
    - 
    - 
    - 
    - 
    - 
    - 
    - 
    - 
    - 
    - 
    - 
    - 
    - 
    - 
    - 
    - 
    - 
    - 
    - 
    - 
    - 
    - 
    - 
    - 
    - 
    - 
    - 
    - 
    - 
    - 
    - 
    - 
    - 
    - 
    - 
    - 
    - 
    - 
    - 
    - 
    - 
    - 
    - 
    - 
    - 
    - 
    - 
    - 
    - 
    - 
    - 
    - 
    - 
    - 
    - 
    - 
    - 
    - 
    - 
    - 
    - 
    - 
    - 
    - 
    - 
    - 
    - 
    - 
    - 
    - 
  - row:
    - W
    - W
    - W
    - W
    - W
    - W
    - 
    - W
    - W
    - 
    - W
    - W
    - W
    - W
    - W
    - W
    - W
    - W
    - 
    - W
    - W
    - 
    - W
    - W
    - W
    - W
    - W
    - W
    - 
    - 
    - 
    - 
    - 
    - 
    - 
    - 
    - 
    - 
    - 
    - 
    - 
    - 
    - 
    - 
    - 
    - 
    - 
    - 
    - 
    - 
    - 
    - 
    - 
    - 
    - 
    - 
    - 
    - 
    - 
    - 
    - 
    - 
    - 
    - 
    - 
    - 
    - 
    - 
    - 
    - 
    - 
    - 
    - 
    - 
    - 
    - 
    - 
    - 
    - 
    - 
    - 
    - 
    - 
    - 
    - 
    - 
    - 
    - 
    - 
    - 
    - 
    - 
    - 
    - 
    - 
    - 
    - 
    - 
    - 
    - 
    - 
    - 
    - 
    - 
    - 
    - 
    - 
    - 
    - 
    - 
    - 
    - 
    - 
    - 
    - 
    - 
    - 
    - 
    - 
    - 
    - 
    - 
    - 
    - 
    - 
    - 
    - 
    - 
    - 
    - 
    - 
    - 
    - 
    - 
    - 
    - 
    - 
    - 
    - 
    - 
    - 
    - 
    - 
    - 
    - 
    - 
    - 
    - 
    - 
    - 
    - 
    - 
    - 
    - 
    - 
    - 
    - 
    - 
    - 
    - 
    - 
    - 
    - 
    - 
    - 
    - 
    - 
    - 
    - 
    - 
    - 
    - 
    - 
    - 
    - 
    - 
    - 
    - 
    - 
    - 
    - 
    - 
    - 
    - 
    - 
    - 
    - 
    - 
    - 
    - 
    - 
    - 
    - 
    - 
    - 
    - 
    - 
    - 
    - 
    - 
    - 
    - 
    - 
    - 
    - 
    - 
    - 
    - 
    - 
    - 
    - 
    - 
    - 
    - 
    - 
    - 
    - 
    - 
    - 
    - 
    - 
    - 
    - 
    - 
    - 
    - 
    - 
    - 
    - 
    - 
    - 
    - 
    - 
    - 
    - 
    - 
    - 
    - 
    - 
    - 
    - 
    - 
    - 
    - 
    - 
    - 
    - 
    - 
    - 
    - 
    - 
    - 
    - 
    - 
    - 
    - 
    - 
    - 
    - 
    - 
    - 
    - 
    - 
    - 
    - 
    - 
    - 
    - 
    - 
    - 
    - 
    - 
    - 
    - 
    - 
    - 
    - 
    - 
    - 
    - 
    - 
    - 
    - 
    - 
    - 
    - 
    - 
    - 
    - 
    - 
    - 
    - 
    - 
    - 
    - 
    - 
    - 
    - 
    - 
    - 
    - 
    - 
    - 
    - 
    - 
    - 
    - 
    - 
    - 
    - 
    - 
    - 
    - 
    - 
    - 
    - 
    - 
    - 
    - 
    - 
    - 
    - 
    - 
    - 
    - 
    - 
    - 
    - 
    - 
    - 
    - 
    - 
    - 
    - 
    - 
    - 
    - 
    - 
    - 
    - 
    - 
    - 
    - 
    - 
    - 
    - 
    - 
    - 
    - 
    - 
    - 
    - 
    - 
    - 
    - 
    - 
    - 
    - 
    - 
    - 
    - 
    - 
    - 
    - 
    - 
    - 
    - 
    - 
    - 
    - 
    - 
    - 
    - 
    - 
    - 
    - 
    - 
    - 
    - 
    - 
    - 
    - 
    - 
    - 
    - 
    - 
    - 
    - 
    - 
    - 
    - 
    - 
    - 
    - 
    - 
    - 
    - 
    - 
    - 
    - 
    - 
    - 
    - 
    - 
    - 
    - 
    - 
    - 
    - 
    - 
    - 
    - 
    - 
    - 
    - 
    - 
    - 
    - 
    - 
    - 
    - 
    - 
    - 
    - 
    - 
    - 
    - 
    - 
    - 
    - 
    - 
    - 
    - 
    - 
    - 
    - 
    - 
    - 
    - 
    - 
    - 
    - 
    - 
    - 
    - 
    - 
    - 
    - 
    - 
    - 
    - 
    - 
    - 
    - 
    - 
    - 
    - 
    - 
    - 
    - 
    - 
    - 
    - 
    - 
    - 
    - 
    - 
    - 
    - 
    - 
    - 
    - 
    - 
    - 
    - 
    - 
    - 
    - 
    - 
    - 
    - 
    - 
    - 
    - 
    - 
    - 
    - 
    - 
    - 
    - 
    - 
    - 
    - 
    - 
    - 
    - 
    - 
    - 
    - 
    - 
    - 
    - 
    - 
    - 
    - 
    - 
    - 
    - 
    - 
    - 
    - 
    - 
    - 
    - 
    - 
    - 
    - 
    - 
    - 
    - 
    - 
    - 
    - 
    - 
    - 
    - 
    - 
    - 
    - 
    - 
    - 
    - 
    - 
    - 
    - 
    - 
    - 
    - 
    - 
    - 
    - 
    - 
    - 
    - 
    - 
    - 
    - 
    - 
    - 
    - 
    - 
    - 
    - 
    - 
    - 
    - 
    - 
    - 
    - 
    - 
  - row:
    - W
    - 
    - 
    - 
    - 
    - 
    - 
    - 
    - 
    - 
    - 
    - 
    - 
    - W
    - W
    - 
    - 
    - 
    - 
    - 
    - 
    - 
    - 
    - 
    - 
    - 
    - 
    - W
    - 
    - 
    - 
    - 
    - 
    - 
    - 
    - 
    - 
    - 
    - 
    - 
    - 
    - 
    - 
    - 
    - 
    - 
    - 
    - 
    - 
    - 
    - 
    - 
    - 
    - 
    - 
    - 
    - 
    - 
    - 
    - 
    - 
    - 
    - 
    - 
    - 
    - 
    - 
    - 
    - 
    - 
    - 
    - 
    - 
    - 
    - 
    - 
    - 
    - 
    - 
    - 
    - 
    - 
    - 
    - 
    - 
    - 
    - 
    - 
    - 
    - 
    - 
    - 
    - 
    - 
    - 
    - 
    - 
    - 
    - 
    - 
    - 
    - 
    - 
    - 
    - 
    - 
    - 
    - 
    - 
    - 
    - 
    - 
    - 
    - 
    - 
    - 
    - 
    - 
    - 
    - 
    - 
    - 
    - 
    - 
    - 
    - 
    - 
    - 
    - 
    - 
    - 
    - 
    - 
    - 
    - 
    - 
    - 
    - 
    - 
    - 
    - 
    - 
    - 
    - 
    - 
    - 
    - 
    - 
    - 
    - 
    - 
    - 
    - 
    - 
    - 
    - 
    - 
    - 
    - 
    - 
    - 
    - 
    - 
    - 
    - 
    - 
    - 
    - 
    - 
    - 
    - 
    - 
    - 
    - 
    - 
    - 
    - 
    - 
    - 
    - 
    - 
    - 
    - 
    - 
    - 
    - 
    - 
    - 
    - 
    - 
    - 
    - 
    - 
    - 
    - 
    - 
    - 
    - 
    - 
    - 
    - 
    - 
    - 
    - 
    - 
    - 
    - 
    - 
    - 
    - 
    - 
    - 
    - 
    - 
    - 
    - 
    - 
    - 
    - 
    - 
    - 
    - 
    - 
    - 
    - 
    - 
    - 
    - 
    - 
    - 
    - 
    - 
    - 
    - 
    - 
    - 
    - 
    - 
    - 
    - 
    - 
    - 
    - 
    - 
    - 
    - 
    - 
    - 
    - 
    - 
    - 
    - 
    - 
    - 
    - 
    - 
    - 
    - 
    - 
    - 
    - 
    - 
    - 
    - 
    - 
    - 
    - 
    - 
    - 
    - 
    - 
    - 
    - 
    - 
    - 
    - 
    - 
    - 
    - 
    - 
    - 
    - 
    - 
    - 
    - 
    - 
    - 
    - 
    - 
    - 
    - 
    - 
    - 
    - 
    - 
    - 
    - 
    - 
    - 
    - 
    - 
    - 
    - 
    - 
    - 
    - 
    - 
    - 
    - 
    - 
    - 
    - 
    - 
    - 
    - 
    - 
    - 
    - 
    - 
    - 
    - 
    - 
    - 
    - 
    - 
    - 
    - 
    - 
    - 
    - 
    - 
    - 
    - 
    - 
    - 
    - 
    - 
    - 
    - 
    - 
    - 
    - 
    - 
    - 
    - 
    - 
    - 
    - 
    - 
    - 
    - 
    - 
    - 
    - 
    - 
    - 
    - 
    - 
    - 
    - 
    - 
    - 
    - 
    - 
    - 
    - 
    - 
    - 
    - 
    - 
    - 
    - 
    - 
    - 
    - 
    - 
    - 
    - 
    - 
    - 
    - 
    - 
    - 
    - 
    - 
    - 
    - 
    - 
    - 
    - 
    - 
    - 
    - 
    - 
    - 
    - 
    - 
    - 
    - 
    - 
    - 
    - 
    - 
    - 
    - 
    - 
    - 
    - 
    - 
    - 
    - 
    - 
    - 
    - 
    - 
    - 
    - 
    - 
    - 
    - 
    - 
    - 
    - 
    - 
    - 
    - 
    - 
    - 
    - 
    - 
    - 
    - 
    - 
    - 
    - 
    - 
    - 
    - 
    - 
    - 
    - 
    - 
    - 
    - 
    - 
    - 
    - 
    - 
    - 
    - 
    - 
    - 
    - 
    - 
    - 
    - 
    - 
    - 
    - 
    - 
    - 
    - 
    - 
    - 
    - 
    - 
    - 
    - 
    - 
    - 
    - 
    - 
    - 
    - 
    - 
    - 
    - 
    - 
    - 
    - 
    - 
    - 
    - 
    - 
    - 
    - 
    - 
    - 
    - 
    - 
    - 
    - 
    - 
    - 
    - 
    - 
    - 
    - 
    - 
    - 
    - 
    - 
    - 
    - 
    - 
    - 
    - 
    - 
    - 
    - 
    - 
    - 
    - 
    - 
    - 
    - 
    - 
    - 
    - 
    - 
    - 
    - 
    - 
    - 
    - 
    - 
    - 
    - 
    - 
    - 
    - 
    - 
    - 
    - 
    - 
    - 
    - 
    - 
    - 
    - 
    - 
    - 
    - 
    - 
    - 
    - 
    - 
    - 
    - 
    - 
    - 
    - 
    - 
    - 
    - 
    - 
    - 
    - 
    - 
    - 
    - 
    - 
    - 
    - 
    - 
    - 
    - 
    - 
    - 
    - 
    - 
    - 
    - 
    - 
    - 
    - 
    - 
    - 
    - 
    - 
    - 
    - 
    - 
    - 
    - 
    - 
    - 
    - 
  - row:
    - W
    - 
    - W
    - W
    - W
    - W
    - 
    - W
    - W
    - W
    - W
    - W
    - 
    - W
    - W
    - 
    - W
    - W
    - W
    - W
    - W
    - 
    - W
    - W
    - W
    - W
    - 
    - W
    - 
    - 
    - 
    - 
    - 
    - 
    - 
    - 
    - 
    - 
    - 
    - 
    - 
    - 
    - 
    - 
    - 
    - 
    - 
    - 
    - 
    - 
    - 
    - 
    - 
    - 
    - 
    - 
    - 
    - 
    - 
    - 
    - 
    - 
    - 
    - 
    - 
    - 
    - 
    - 
    - 
    - 
    - 
    - 
    - 
    - 
    - 
    - 
    - 
    - 
    - 
    - 
    - 
    - 
    - 
    - 
    - 
    - 
    - 
    - 
    - 
    - 
    - 
    - 
    - 
    - 
    - 
    - 
    - 
    - 
    - 
    - 
    - 
    - 
    - 
    - 
    - 
    - 
    - 
    - 
    - 
    - 
    - 
    - 
    - 
    - 
    - 
    - 
    - 
    - 
    - 
    - 
    - 
    - 
    - 
    - 
    - 
    - 
    - 
    - 
    - 
    - 
    - 
    - 
    - 
    - 
    - 
    - 
    - 
    - 
    - 
    - 
    - 
    - 
    - 
    - 
    - 
    - 
    - 
    - 
    - 
    - 
    - 
    - 
    - 
    - 
    - 
    - 
    - 
    - 
    - 
    - 
    - 
    - 
    - 
    - 
    - 
    - 
    - 
    - 
    - 
    - 
    - 
    - 
    - 
    - 
    - 
    - 
    - 
    - 
    - 
    - 
    - 
    - 
    - 
    - 
    - 
    - 
    - 
    - 
    - 
    - 
    - 
    - 
    - 
    - 
    - 
    - 
    - 
    - 
    - 
    - 
    - 
    - 
    - 
    - 
    - 
    - 
    - 
    - 
    - 
    - 
    - 
    - 
    - 
    - 
    - 
    - 
    - 
    - 
    - 
    - 
    - 
    - 
    - 
    - 
    - 
    - 
    - 
    - 
    - 
    - 
    - 
    - 
    - 
    - 
    - 
    - 
    - 
    - 
    - 
    - 
    - 
    - 
    - 
    - 
    - 
    - 
    - 
    - 
    - 
    - 
    - 
    - 
    - 
    - 
    - 
    - 
    - 
    - 
    - 
    - 
    - 
    - 
    - 
    - 
    - 
    - 
    - 
    - 
    - 
    - 
    - 
    - 
    - 
    - 
    - 
    - 
    - 
    - 
    - 
    - 
    - 
    - 
    - 
    - 
    - 
    - 
    - 
    - 
    - 
    - 
    - 
    - 
    - 
    - 
    - 
    - 
    - 
    - 
    - 
    - 
    - 
    - 
    - 
    - 
    - 
    - 
    - 
    - 
    - 
    - 
    - 
    - 
    - 
    - 
    - 
    - 
    - 
    - 
    - 
    - 
    - 
    - 
    - 
    - 
    - 
    - 
    - 
    - 
    - 
    - 
    - 
    - 
    - 
    - 
    - 
    - 
    - 
    - 
    - 
    - 
    - 
    - 
    - 
    - 
    - 
    - 
    - 
    - 
    - 
    - 
    - 
    - 
    - 
    - 
    - 
    - 
    - 
    - 
    - 
    - 
    - 
    - 
    - 
    - 
    - 
    - 
    - 
    - 
    - 
    - 
    - 
    - 
    - 
    - 
    - 
    - 
    - 
    - 
    - 
    - 
    - 
    - 
    - 
    - 
    - 
    - 
    - 
    - 
    - 
    - 
    - 
    - 
    - 
    - 
    - 
    - 
    - 
    - 
    - 
    - 
    - 
    - 
    - 
    - 
    - 
    - 
    - 
    - 
    - 
    - 
    - 
    - 
    - 
    - 
    - 
    - 
    - 
    - 
    - 
    - 
    - 
    - 
    - 
    - 
    - 
    - 
    - 
    - 
    - 
    - 
    - 
    - 
    - 
    - 
    - 
    - 
    - 
    - 
    - 
    - 
    - 
    - 
    - 
    - 
    - 
    - 
    - 
    - 
    - 
    - 
    - 
    - 
    - 
    - 
    - 
    - 
    - 
    - 
    - 
    - 
    - 
    - 
    - 
    - 
    - 
    - 
    - 
    - 
    - 
    - 
    - 
    - 
    - 
    - 
    - 
    - 
    - 
    - 
    - 
    - 
    - 
    - 
    - 
    - 
    - 
    - 
    - 
    - 
    - 
    - 
    - 
    - 
    - 
    - 
    - 
    - 
    - 
    - 
    - 
    - 
    - 
    - 
    - 
    - 
    - 
    - 
    - 
    - 
    - 
    - 
    - 
    - 
    - 
    - 
    - 
    - 
    - 
    - 
    - 
    - 
    - 
    - 
    - 
    - 
    - 
    - 
    - 
    - 
    - 
    - 
    - 
    - 
    - 
    - 
    - 
    - 
    - 
    - 
    - 
    - 
    - 
    - 
    - 
    - 
    - 
    - 
    - 
    - 
    - 
    - 
    - 
    - 
    - 
    - 
    - 
    - 
    - 
    - 
    - 
    - 
    - 
    - 
    - 
    - 
    - 
    - 
    - 
    - 
    - 
    - 
    - 
    - 
    - 
    - 
    - 
    - 
    - 
    - 
    - 
    - 
    - 
    - 
    - 
    - 
    - 
    - 
    - 
    - 
    - 
    - 
    - 
    - 
    - 
    - 
    - 
    - 
    - 
    - 
    - 
    - 
    - 
    - 
    - 
    - 
    - 
    - 
    - 
    - 
    - 
    - 
    - 
    - 
    - 
    - 
    - 
    - 
  - row:
    - W
    - 
    - W
    - W
    - W
    - W
    - 
    - W
    - W
    - W
    - W
    - W
    - 
    - W
    - W
    - 
    - W
    - W
    - W
    - W
    - W
    - 
    - W
    - W
    - W
    - W
    - 
    - W
    - 
    - 
    - 
    - 
    - 
    - 
    - 
    - 
    - 
    - 
    - 
    - 
    - 
    - 
    - 
    - 
    - 
    - 
    - 
    - 
    - 
    - 
    - 
    - 
    - 
    - 
    - 
    - 
    - 
    - 
    - 
    - 
    - 
    - 
    - 
    - 
    - 
    - 
    - 
    - 
    - 
    - 
    - 
    - 
    - 
    - 
    - 
    - 
    - 
    - 
    - 
    - 
    - 
    - 
    - 
    - 
    - 
    - 
    - 
    - 
    - 
    - 
    - 
    - 
    - 
    - 
    - 
    - 
    - 
    - 
    - 
    - 
    - 
    - 
    - 
    - 
    - 
    - 
    - 
    - 
    - 
    - 
    - 
    - 
    - 
    - 
    - 
    - 
    - 
    - 
    - 
    - 
    - 
    - 
    - 
    - 
    - 
    - 
    - 
    - 
    - 
    - 
    - 
    - 
    - 
    - 
    - 
    - 
    - 
    - 
    - 
    - 
    - 
    - 
    - 
    - 
    - 
    - 
    - 
    - 
    - 
    - 
    - 
    - 
    - 
    - 
    - 
    - 
    - 
    - 
    - 
    - 
    - 
    - 
    - 
    - 
    - 
    - 
    - 
    - 
    - 
    - 
    - 
    - 
    - 
    - 
    - 
    - 
    - 
    - 
    - 
    - 
    - 
    - 
    - 
    - 
    - 
    - 
    - 
    - 
    - 
    - 
    - 
    - 
    - 
    - 
    - 
    - 
    - 
    - 
    - 
    - 
    - 
    - 
    - 
    - 
    - 
    - 
    - 
    - 
    - 
    - 
    - 
    - 
    - 
    - 
    - 
    - 
    - 
    - 
    - 
    - 
    - 
    - 
    - 
    - 
    - 
    - 
    - 
    - 
    - 
    - 
    - 
    - 
    - 
    - 
    - 
    - 
    - 
    - 
    - 
    - 
    - 
    - 
    - 
    - 
    - 
    - 
    - 
    - 
    - 
    - 
    - 
    - 
    - 
    - 
    - 
    - 
    - 
    - 
    - 
    - 
    - 
    - 
    - 
    - 
    - 
    - 
    - 
    - 
    - 
    - 
    - 
    - 
    - 
    - 
    - 
    - 
    - 
    - 
    - 
    - 
    - 
    - 
    - 
    - 
    - 
    - 
    - 
    - 
    - 
    - 
    - 
    - 
    - 
    - 
    - 
    - 
    - 
    - 
    - 
    - 
    - 
    - 
    - 
    - 
    - 
    - 
    - 
    - 
    - 
    - 
    - 
    - 
    - 
    - 
    - 
    - 
    - 
    - 
    - 
    - 
    - 
    - 
    - 
    - 
    - 
    - 
    - 
    - 
    - 
    - 
    - 
    - 
    - 
    - 
    - 
    - 
    - 
    - 
    - 
    - 
    - 
    - 
    - 
    - 
    - 
    - 
    - 
    - 
    - 
    - 
    - 
    - 
    - 
    - 
    - 
    - 
    - 
    - 
    - 
    - 
    - 
    - 
    - 
    - 
    - 
    - 
    - 
    - 
    - 
    - 
    - 
    - 
    - 
    - 
    - 
    - 
    - 
    - 
    - 
    - 
    - 
    - 
    - 
    - 
    - 
    - 
    - 
    - 
    - 
    - 
    - 
    - 
    - 
    - 
    - 
    - 
    - 
    - 
    - 
    - 
    - 
    - 
    - 
    - 
    - 
    - 
    - 
    - 
    - 
    - 
    - 
    - 
    - 
    - 
    - 
    - 
    - 
    - 
    - 
    - 
    - 
    - 
    - 
    - 
    - 
    - 
    - 
    - 
    - 
    - 
    - 
    - 
    - 
    - 
    - 
    - 
    - 
    - 
    - 
    - 
    - 
    - 
    - 
    - 
    - 
    - 
    - 
    - 
    - 
    - 
    - 
    - 
    - 
    - 
    - 
    - 
    - 
    - 
    - 
    - 
    - 
    - 
    - 
    - 
    - 
    - 
    - 
    - 
    - 
    - 
    - 
    - 
    - 
    - 
    - 
    - 
    - 
    - 
    - 
    - 
    - 
    - 
    - 
    - 
    - 
    - 
    - 
    - 
    - 
    - 
    - 
    - 
    - 
    - 
    - 
    - 
    - 
    - 
    - 
    - 
    - 
    - 
    - 
    - 
    - 
    - 
    - 
    - 
    - 
    - 
    - 
    - 
    - 
    - 
    - 
    - 
    - 
    - 
    - 
    - 
    - 
    - 
    - 
    - 
    - 
    - 
    - 
    - 
    - 
    - 
    - 
    - 
    - 
    - 
    - 
    - 
    - 
    - 
    - 
    - 
    - 
    - 
    - 
    - 
    - 
    - 
    - 
    - 
    - 
    - 
    - 
    - 
    - 
    - 
    - 
    - 
    - 
    - 
    - 
    - 
    - 
    - 
    - 
    - 
    - 
    - 
    - 
    - 
    - 
    - 
    - 
    - 
    - 
    - 
    - 
    - 
    - 
    - 
    - 
    - 
    - 
    - 
    - 
    - 
    - 
    - 
    - 
    - 
    - 
    - 
    - 
    - 
    - 
    - 
    - 
    - 
    - 
    - 
    - 
    - 
    - 
    - 
    - 
    - 
    - 
    - 
    - 
    - 
    - 
    - 
    - 
    - 
    - 
    - 
    - 
    - 
    - 
    - 
    - 
    - 
    - 
    - 
    - 
    - 
    - 
    - 
    - 
    - 
    - 
    - 
    - 
    - 
    - 
    - 
    - 
    - 
    - 
    - 
    - 
    - 
    - 
    - 
    - 
    - 
  - row:
    - W
    - 
    - 
    - 
    - W
    - W
    - 
    - 
    - 
    - 
    - 
    - 
    - 
    - 
    - 
    - 
    - 
    - 
    - 
    - 
    - 
    - 
    - W
    - W
    - 
    - 
    - 
    - W
    - 
    - 
    - 
    - 
    - 
    - 
    - 
    - 
    - 
    - 
    - 
    - 
    - 
    - 
    - 
    - 
    - 
    - 
    - 
    - 
    - 
    - 
    - 
    - 
    - 
    - 
    - 
    - 
    - 
    - 
    - 
    - 
    - 
    - 
    - 
    - 
    - 
    - 
    - 
    - 
    - 
    - 
    - 
    - 
    - 
    - 
    - 
    - 
    - 
    - 
    - 
    - 
    - 
    - 
    - 
    - 
    - 
    - 
    - 
    - 
    - 
    - 
    - 
    - 
    - 
    - 
    - 
    - 
    - 
    - 
    - 
    - 
    - 
    - 
    - 
    - 
    - 
    - 
    - 
    - 
    - 
    - 
    - 
    - 
    - 
    - 
    - 
    - 
    - 
    - 
    - 
    - 
    - 
    - 
    - 
    - 
    - 
    - 
    - 
    - 
    - 
    - 
    - 
    - 
    - 
    - 
    - 
    - 
    - 
    - 
    - 
    - 
    - 
    - 
    - 
    - 
    - 
    - 
    - 
    - 
    - 
    - 
    - 
    - 
    - 
    - 
    - 
    - 
    - 
    - 
    - 
    - 
    - 
    - 
    - 
    - 
    - 
    - 
    - 
    - 
    - 
    - 
    - 
    - 
    - 
    - 
    - 
    - 
    - 
    - 
    - 
    - 
    - 
    - 
    - 
    - 
    - 
    - 
    - 
    - 
    - 
    - 
    - 
    - 
    - 
    - 
    - 
    - 
    - 
    - 
    - 
    - 
    - 
    - 
    - 
    - 
    - 
    - 
    - 
    - 
    - 
    - 
    - 
    - 
    - 
    - 
    - 
    - 
    - 
    - 
    - 
    - 
    - 
    - 
    - 
    - 
    - 
    - 
    - 
    - 
    - 
    - 
    - 
    - 
    - 
    - 
    - 
    - 
    - 
    - 
    - 
    - 
    - 
    - 
    - 
    - 
    - 
    - 
    - 
    - 
    - 
    - 
    - 
    - 
    - 
    - 
    - 
    - 
    - 
    - 
    - 
    - 
    - 
    - 
    - 
    - 
    - 
    - 
    - 
    - 
    - 
    - 
    - 
    - 
    - 
    - 
    - 
    - 
    - 
    - 
    - 
    - 
    - 
    - 
    - 
    - 
    - 
    - 
    - 
    - 
    - 
    - 
    - 
    - 
    - 
    - 
    - 
    - 
    - 
    - 
    - 
    - 
    - 
    - 
    - 
    - 
    - 
    - 
    - 
    - 
    - 
    - 
    - 
    - 
    - 
    - 
    - 
    - 
    - 
    - 
    - 
    - 
    - 
    - 
    - 
    - 
    - 
    - 
    - 
    - 
    - 
    - 
    - 
    - 
    - 
    - 
    - 
    - 
    - 
    - 
    - 
    - 
    - 
    - 
    - 
    - 
    - 
    - 
    - 
    - 
    - 
    - 
    - 
    - 
    - 
    - 
    - 
    - 
    - 
    - 
    - 
    - 
    - 
    - 
    - 
    - 
    - 
    - 
    - 
    - 
    - 
    - 
    - 
    - 
    - 
    - 
    - 
    - 
    - 
    - 
    - 
    - 
    - 
    - 
    - 
    - 
    - 
    - 
    - 
    - 
    - 
    - 
    - 
    - 
    - 
    - 
    - 
    - 
    - 
    - 
    - 
    - 
    - 
    - 
    - 
    - 
    - 
    - 
    - 
    - 
    - 
    - 
    - 
    - 
    - 
    - 
    - 
    - 
    - 
    - 
    - 
    - 
    - 
    - 
    - 
    - 
    - 
    - 
    - 
    - 
    - 
    - 
    - 
    - 
    - 
    - 
    - 
    - 
    - 
    - 
    - 
    - 
    - 
    - 
    - 
    - 
    - 
    - 
    - 
    - 
    - 
    - 
    - 
    - 
    - 
    - 
    - 
    - 
    - 
    - 
    - 
    - 
    - 
    - 
    - 
    - 
    - 
    - 
    - 
    - 
    - 
    - 
    - 
    - 
    - 
    - 
    - 
    - 
    - 
    - 
    - 
    - 
    - 
    - 
    - 
    - 
    - 
    - 
    - 
    - 
    - 
    - 
    - 
    - 
    - 
    - 
    - 
    - 
    - 
    - 
    - 
    - 
    - 
    - 
    - 
    - 
    - 
    - 
    - 
    - 
    - 
    - 
    - 
    - 
    - 
    - 
    - 
    - 
    - 
    - 
    - 
    - 
    - 
    - 
    - 
    - 
    - 
    - 
    - 
    - 
    - 
    - 
    - 
    - 
    - 
    - 
    - 
    - 
    - 
    - 
    - 
    - 
    - 
    - 
    - 
    - 
    - 
    - 
    - 
    - 
    - 
    - 
    - 
    - 
    - 
    - 
    - 
    - 
    - 
    - 
    - 
    - 
    - 
    - 
    - 
    - 
    - 
    - 
    - 
    - 
    - 
    - 
    - 
    - 
    - 
    - 
    - 
    - 
    - 
    - 
    - 
    - 
    - 
    - 
    - 
    - 
    - 
    - 
    - 
    - 
    - 
    - 
    - 
    - 
    - 
    - 
    - 
    - 
    - 
    - 
    - 
    - 
    - 
    - 
    - 
    - 
    - 
    - 
    - 
    - 
    - 
    - 
    - 
    - 
    - 
    - 
    - 
    - 
    - 
    - 
    - 
    - 
    - 
    - 
    - 
    - 
    - 
    - 
    - 
    - 
    - 
    - 
    - 
    - 
    - 
    - 
    - 
    - 
    - 
    - 
    - 
    - 
    - 
    - 
    - 
    - 
    - 
    - 
    - 
    - 
    - 
    - 
    - 
    - 
    - 
    - 
    - 
    - 
    - 
    - 
    - 
    - 
    - 
    - 
    - 
    - 
    - 
    - 
    - 
    - 
    - 
    - 
    - 
    - 
  - row:
    - W
    - W
    - W
    - 
    - W
    - W
    - 
    - W
    - W
    - 
    - W
    - W
    - W
    - W
    - W
    - W
    - W
    - W
    - 
    - W
    - W
    - 
    - W
    - W
    - 
    - W
    - W
    - W
    - 
    - 
    - 
    - 
    - 
    - 
    - 
    - 
    - 
    - 
    - 
    - 
    - 
    - 
    - 
    - 
    - 
    - 
    - 
    - 
    - 
    - 
    - 
    - 
    - 
    - 
    - 
    - 
    - 
    - 
    - 
    - 
    - 
    - 
    - 
    - 
    - 
    - 
    - 
    - 
    - 
    - 
    - 
    - 
    - 
    - 
    - 
    - 
    - 
    - 
    - 
    - 
    - 
    - 
    - 
    - 
    - 
    - 
    - 
    - 
    - 
    - 
    - 
    - 
    - 
    - 
    - 
    - 
    - 
    - 
    - 
    - 
    - 
    - 
    - 
    - 
    - 
    - 
    - 
    - 
    - 
    - 
    - 
    - 
    - 
    - 
    - 
    - 
    - 
    - 
    - 
    - 
    - 
    - 
    - 
    - 
    - 
    - 
    - 
    - 
    - 
    - 
    - 
    - 
    - 
    - 
    - 
    - 
    - 
    - 
    - 
    - 
    - 
    - 
    - 
    - 
    - 
    - 
    - 
    - 
    - 
    - 
    - 
    - 
    - 
    - 
    - 
    - 
    - 
    - 
    - 
    - 
    - 
    - 
    - 
    - 
    - 
    - 
    - 
    - 
    - 
    - 
    - 
    - 
    - 
    - 
    - 
    - 
    - 
    - 
    - 
    - 
    - 
    - 
    - 
    - 
    - 
    - 
    - 
    - 
    - 
    - 
    - 
    - 
    - 
    - 
    - 
    - 
    - 
    - 
    - 
    - 
    - 
    - 
    - 
    - 
    - 
    - 
    - 
    - 
    - 
    - 
    - 
    - 
    - 
    - 
    - 
    - 
    - 
    - 
    - 
    - 
    - 
    - 
    - 
    - 
    - 
    - 
    - 
    - 
    - 
    - 
    - 
    - 
    - 
    - 
    - 
    - 
    - 
    - 
    - 
    - 
    - 
    - 
    - 
    - 
    - 
    - 
    - 
    - 
    - 
    - 
    - 
    - 
    - 
    - 
    - 
    - 
    - 
    - 
    - 
    - 
    - 
    - 
    - 
    - 
    - 
    - 
    - 
    - 
    - 
    - 
    - 
    - 
    - 
    - 
    - 
    - 
    - 
    - 
    - 
    - 
    - 
    - 
    - 
    - 
    - 
    - 
    - 
    - 
    - 
    - 
    - 
    - 
    - 
    - 
    - 
    - 
    - 
    - 
    - 
    - 
    - 
    - 
    - 
    - 
    - 
    - 
    - 
    - 
    - 
    - 
    - 
    - 
    - 
    - 
    - 
    - 
    - 
    - 
    - 
    - 
    - 
    - 
    - 
    - 
    - 
    - 
    - 
    - 
    - 
    - 
    - 
    - 
    - 
    - 
    - 
    - 
    - 
    - 
    - 
    - 
    - 
    - 
    - 
    - 
    - 
    - 
    - 
    - 
    - 
    - 
    - 
    - 
    - 
    - 
    - 
    - 
    - 
    - 
    - 
    - 
    - 
    - 
    - 
    - 
    - 
    - 
    - 
    - 
    - 
    - 
    - 
    - 
    - 
    - 
    - 
    - 
    - 
    - 
    - 
    - 
    - 
    - 
    - 
    - 
    - 
    - 
    - 
    - 
    - 
    - 
    - 
    - 
    - 
    - 
    - 
    - 
    - 
    - 
    - 
    - 
    - 
    - 
    - 
    - 
    - 
    - 
    - 
    - 
    - 
    - 
    - 
    - 
    - 
    - 
    - 
    - 
    - 
    - 
    - 
    - 
    - 
    - 
    - 
    - 
    - 
    - 
    - 
    - 
    - 
    - 
    - 
    - 
    - 
    - 
    - 
    - 
    - 
    - 
    - 
    - 
    - 
    - 
    - 
    - 
    - 
    - 
    - 
    - 
    - 
    - 
    - 
    - 
    - 
    - 
    - 
    - 
    - 
    - 
    - 
    - 
    - 
    - 
    - 
    - 
    - 
    - 
    - 
    - 
    - 
    - 
    - 
    - 
    - 
    - 
    - 
    - 
    - 
    - 
    - 
    - 
    - 
    - 
    - 
    - 
    - 
    - 
    - 
    - 
    - 
    - 
    - 
    - 
    - 
    - 
    - 
    - 
    - 
    - 
    - 
    - 
    - 
    - 
    - 
    - 
    - 
    - 
    - 
    - 
    - 
    - 
    - 
    - 
    - 
    - 
    - 
    - 
    - 
    - 
    - 
    - 
    - 
    - 
    - 
    - 
    - 
    - 
    - 
    - 
    - 
    - 
    - 
    - 
    - 
    - 
    - 
    - 
    - 
    - 
    - 
    - 
    - 
    - 
    - 
    - 
    - 
    - 
    - 
    - 
    - 
    - 
    - 
    - 
    - 
    - 
    - 
    - 
    - 
    - 
    - 
    - 
    - 
    - 
    - 
    - 
    - 
    - 
    - 
    - 
    - 
    - 
    - 
    - 
    - 
    - 
    - 
    - 
    - 
    - 
    - 
    - 
    - 
    - 
    - 
    - 
    - 
    - 
    - 
    - 
    - 
    - 
    - 
    - 
    - 
    - 
    - 
    - 
    - 
    - 
    - 
    - 
    - 
    - 
    - 
    - 
    - 
    - 
    - 
    - 
    - 
    - 
    - 
    - 
    - 
    - 
    - 
    - 
    - 
    - 
    - 
    - 
    - 
    - 
    - 
    - 
    - 
    - 
    - 
    - 
    - 
    - 
    - 
    - 
    - 
    - 
    - 
    - 
    - 
    - 
    - 
    - 
    - 
    - 
    - 
    - 
    - 
    - 
    - 
    - 
    - 
    - 
    - 
    - 
    - 
    - 
    - 
    - 
    - 
    - 
    - 
    - 
    - 
    - 
    - 
    - 
    - 
    - 
    - 
    - 
    - 
    - 
    - 
    - 
    - 
    - 
    - 
    - 
    - 
    - 
    - 
    - 
    - 
    - 
    - 
    - 
    - 
    - 
    - 
    - 
    - 
    - 
    - 
    - 
    - 
    - 
    - 
    - 
    - 
    - 
    - 
    - 
  - row:
    - W
    - W
    - W
    - 
    - W
    - W
    - 
    - W
    - W
    - 
    - W
    - W
    - W
    - W
    - W
    - W
    - W
    - W
    - 
    - W
    - W
    - 
    - W
    - W
    - 
    - W
    - W
    - W
    - 
    - 
    - 
    - 
    - 
    - 
    - 
    - 
    - 
    - 
    - 
    - 
    - 
    - 
    - 
    - 
    - 
    - 
    - 
    - 
    - 
    - 
    - 
    - 
    - 
    - 
    - 
    - 
    - 
    - 
    - 
    - 
    - 
    - 
    - 
    - 
    - 
    - 
    - 
    - 
    - 
    - 
    - 
    - 
    - 
    - 
    - 
    - 
    - 
    - 
    - 
    - 
    - 
    - 
    - 
    - 
    - 
    - 
    - 
    - 
    - 
    - 
    - 
    - 
    - 
    - 
    - 
    - 
    - 
    - 
    - 
    - 
    - 
    - 
    - 
    - 
    - 
    - 
    - 
    - 
    - 
    - 
    - 
    - 
    - 
    - 
    - 
    - 
    - 
    - 
    - 
    - 
    - 
    - 
    - 
    - 
    - 
    - 
    - 
    - 
    - 
    - 
    - 
    - 
    - 
    - 
    - 
    - 
    - 
    - 
    - 
    - 
    - 
    - 
    - 
    - 
    - 
    - 
    - 
    - 
    - 
    - 
    - 
    - 
    - 
    - 
    - 
    - 
    - 
    - 
    - 
    - 
    - 
    - 
    - 
    - 
    - 
    - 
    - 
    - 
    - 
    - 
    - 
    - 
    - 
    - 
    - 
    - 
    - 
    - 
    - 
    - 
    - 
    - 
    - 
    - 
    - 
    - 
    - 
    - 
    - 
    - 
    - 
    - 
    - 
    - 
    - 
    - 
    - 
    - 
    - 
    - 
    - 
    - 
    - 
    - 
    - 
    - 
    - 
    - 
    - 
    - 
    - 
    - 
    - 
    - 
    - 
    - 
    - 
    - 
    - 
    - 
    - 
    - 
    - 
    - 
    - 
    - 
    - 
    - 
    - 
    - 
    - 
    - 
    - 
    - 
    - 
    - 
    - 
    - 
    - 
    - 
    - 
    - 
    - 
    - 
    - 
    - 
    - 
    - 
    - 
    - 
    - 
    - 
    - 
    - 
    - 
    - 
    - 
    - 
    - 
    - 
    - 
    - 
    - 
    - 
    - 
    - 
    - 
    - 
    - 
    - 
    - 
    - 
    - 
    - 
    - 
    - 
    - 
    - 
    - 
    - 
    - 
    - 
    - 
    - 
    - 
    - 
    - 
    - 
    - 
    - 
    - 
    - 
    - 
    - 
    - 
    - 
    - 
    - 
    - 
    - 
    - 
    - 
    - 
    - 
    - 
    - 
    - 
    - 
    - 
    - 
    - 
    - 
    - 
    - 
    - 
    - 
    - 
    - 
    - 
    - 
    - 
    - 
    - 
    - 
    - 
    - 
    - 
    - 
    - 
    - 
    - 
    - 
    - 
    - 
    - 
    - 
    - 
    - 
    - 
    - 
    - 
    - 
    - 
    - 
    - 
    - 
    - 
    - 
    - 
    - 
    - 
    - 
    - 
    - 
    - 
    - 
    - 
    - 
    - 
    - 
    - 
    - 
    - 
    - 
    - 
    - 
    - 
    - 
    - 
    - 
    - 
    - 
    - 
    - 
    - 
    - 
    - 
    - 
    - 
    - 
    - 
    - 
    - 
    - 
    - 
    - 
    - 
    - 
    - 
    - 
    - 
    - 
    - 
    - 
    - 
    - 
    - 
    - 
    - 
    - 
    - 
    - 
    - 
    - 
    - 
    - 
    - 
    - 
    - 
    - 
    - 
    - 
    - 
    - 
    - 
    - 
    - 
    - 
    - 
    - 
    - 
    - 
    - 
    - 
    - 
    - 
    - 
    - 
    - 
    - 
    - 
    - 
    - 
    - 
    - 
    - 
    - 
    - 
    - 
    - 
    - 
    - 
    - 
    - 
    - 
    - 
    - 
    - 
    - 
    - 
    - 
    - 
    - 
    - 
    - 
    - 
    - 
    - 
    - 
    - 
    - 
    - 
    - 
    - 
    - 
    - 
    - 
    - 
    - 
    - 
    - 
    - 
    - 
    - 
    - 
    - 
    - 
    - 
    - 
    - 
    - 
    - 
    - 
    - 
    - 
    - 
    - 
    - 
    - 
    - 
    - 
    - 
    - 
    - 
    - 
    - 
    - 
    - 
    - 
    - 
    - 
    - 
    - 
    - 
    - 
    - 
    - 
    - 
    - 
    - 
    - 
    - 
    - 
    - 
    - 
    - 
    - 
    - 
    - 
    - 
    - 
    - 
    - 
    - 
    - 
    - 
    - 
    - 
    - 
    - 
    - 
    - 
    - 
    - 
    - 
    - 
    - 
    - 
    - 
    - 
    - 
    - 
    - 
    - 
    - 
    - 
    - 
    - 
    - 
    - 
    - 
    - 
    - 
    - 
    - 
    - 
    - 
    - 
    - 
    - 
    - 
    - 
    - 
    - 
    - 
    - 
    - 
    - 
    - 
    - 
    - 
    - 
    - 
    - 
    - 
    - 
    - 
    - 
    - 
    - 
    - 
    - 
    - 
    - 
    - 
    - 
    - 
    - 
    - 
    - 
    - 
    - 
    - 
    - 
    - 
    - 
    - 
    - 
    - 
    - 
    - 
    - 
    - 
    - 
    - 
    - 
    - 
    - 
    - 
    - 
    - 
    - 
    - 
    - 
    - 
    - 
    - 
    - 
    - 
    - 
    - 
    - 
    - 
    - 
    - 
    - 
    - 
    - 
    - 
    - 
    - 
    - 
    - 
    - 
    - 
    - 
    - 
    - 
    - 
    - 
    - 
    - 
    - 
    - 
    - 
    - 
    - 
    - 
    - 
    - 
    - 
    - 
    - 
    - 
    - 
    - 
    - 
    - 
    - 
    - 
    - 
    - 
    - 
    - 
    - 
    - 
    - 
    - 
    - 
    - 
    - 
    - 
    - 
    - 
    - 
    - 
    - 
    - 
    - 
    - 
    - 
    - 
    - 
    - 
    - 
    - 
    - 
    - 
    - 
    - 
    - 
    - 
    - 
    - 
    - 
    - 
    - 
    - 
    - 
    - 
    - 
    - 
    - 
    - 
    - 
    - 
    - 
    - 
    - 
    - 
    - 
    - 
    - 
    - 
    - 
    - 
    - 
    - 
    - 
    - 
    - 
    - 
    - 
    - 
    - 
    - 
    - 
    - 
  - row:
    - W
    - 
    - 
    - 
    - 
    - 
    - 
    - W
    - W
    - 
    - 
    - 
    - 
    - W
    - W
    - 
    - 
    - 
    - 
    - W
    - W
    - 
    - 
    - 
    - 
    - 
    - 
    - W
    - 
    - 
    - 
    - 
    - 
    - 
    - 
    - 
    - 
    - 
    - 
    - 
    - 
    - 
    - 
    - 
    - 
    - 
    - 
    - 
    - 
    - 
    - 
    - 
    - 
    - 
    - 
    - 
    - 
    - 
    - 
    - 
    - 
    - 
    - 
    - 
    - 
    - 
    - 
    - 
    - 
    - 
    - 
    - 
    - 
    - 
    - 
    - 
    - 
    - 
    - 
    - 
    - 
    - 
    - 
    - 
    - 
    - 
    - 
    - 
    - 
    - 
    - 
    - 
    - 
    - 
    - 
    - 
    - 
    - 
    - 
    - 
    - 
    - 
    - 
    - 
    - 
    - 
    - 
    - 
    - 
    - 
    - 
    - 
    - 
    - 
    - 
    - 
    - 
    - 
    - 
    - 
    - 
    - 
    - 
    - 
    - 
    - 
    - 
    - 
    - 
    - 
    - 
    - 
    - 
    - 
    - 
    - 
    - 
    - 
    - 
    - 
    - 
    - 
    - 
    - 
    - 
    - 
    - 
    - 
    - 
    - 
    - 
    - 
    - 
    - 
    - 
    - 
    - 
    - 
    - 
    - 
    - 
    - 
    - 
    - 
    - 
    - 
    - 
    - 
    - 
    - 
    - 
    - 
    - 
    - 
    - 
    - 
    - 
    - 
    - 
    - 
    - 
    - 
    - 
    - 
    - 
    - 
    - 
    - 
    - 
    - 
    - 
    - 
    - 
    - 
    - 
    - 
    - 
    - 
    - 
    - 
    - 
    - 
    - 
    - 
    - 
    - 
    - 
    - 
    - 
    - 
    - 
    - 
    - 
    - 
    - 
    - 
    - 
    - 
    - 
    - 
    - 
    - 
    - 
    - 
    - 
    - 
    - 
    - 
    - 
    - 
    - 
    - 
    - 
    - 
    - 
    - 
    - 
    - 
    - 
    - 
    - 
    - 
    - 
    - 
    - 
    - 
    - 
    - 
    - 
    - 
    - 
    - 
    - 
    - 
    - 
    - 
    - 
    - 
    - 
    - 
    - 
    - 
    - 
    - 
    - 
    - 
    - 
    - 
    - 
    - 
    - 
    - 
    - 
    - 
    - 
    - 
    - 
    - 
    - 
    - 
    - 
    - 
    - 
    - 
    - 
    - 
    - 
    - 
    - 
    - 
    - 
    - 
    - 
    - 
    - 
    - 
    - 
    - 
    - 
    - 
    - 
    - 
    - 
    - 
    - 
    - 
    - 
    - 
    - 
    - 
    - 
    - 
    - 
    - 
    - 
    - 
    - 
    - 
    - 
    - 
    - 
    - 
    - 
    - 
    - 
    - 
    - 
    - 
    - 
    - 
    - 
    - 
    - 
    - 
    - 
    - 
    - 
    - 
    - 
    - 
    - 
    - 
    - 
    - 
    - 
    - 
    - 
    - 
    - 
    - 
    - 
    - 
    - 
    - 
    - 
    - 
    - 
    - 
    - 
    - 
    - 
    - 
    - 
    - 
    - 
    - 
    - 
    - 
    - 
    - 
    - 
    - 
    - 
    - 
    - 
    - 
    - 
    - 
    - 
    - 
    - 
    - 
    - 
    - 
    - 
    - 
    - 
    - 
    - 
    - 
    - 
    - 
    - 
    - 
    - 
    - 
    - 
    - 
    - 
    - 
    - 
    - 
    - 
    - 
    - 
    - 
    - 
    - 
    - 
    - 
    - 
    - 
    - 
    - 
    - 
    - 
    - 
    - 
    - 
    - 
    - 
    - 
    - 
    - 
    - 
    - 
    - 
    - 
    - 
    - 
    - 
    - 
    - 
    - 
    - 
    - 
    - 
    - 
    - 
    - 
    - 
    - 
    - 
    - 
    - 
    - 
    - 
    - 
    - 
    - 
    - 
    - 
    - 
    - 
    - 
    - 
    - 
    - 
    - 
    - 
    - 
    - 
    - 
    - 
    - 
    - 
    - 
    - 
    - 
    - 
    - 
    - 
    - 
    - 
    - 
    - 
    - 
    - 
    - 
    - 
    - 
    - 
    - 
    - 
    - 
    - 
    - 
    - 
    - 
    - 
    - 
    - 
    - 
    - 
    - 
    - 
    - 
    - 
    - 
    - 
    - 
    - 
    - 
    - 
    - 
    - 
    - 
    - 
    - 
    - 
    - 
    - 
    - 
    - 
    - 
    - 
    - 
    - 
    - 
    - 
    - 
    - 
    - 
    - 
    - 
    - 
    - 
    - 
    - 
    - 
    - 
    - 
    - 
    - 
    - 
    - 
    - 
    - 
    - 
    - 
    - 
    - 
    - 
    - 
    - 
    - 
    - 
    - 
    - 
    - 
    - 
    - 
    - 
    - 
    - 
    - 
    - 
    - 
    - 
    - 
    - 
    - 
    - 
    - 
    - 
    - 
    - 
    - 
    - 
    - 
    - 
    - 
    - 
    - 
    - 
    - 
    - 
    - 
    - 
    - 
    - 
    - 
    - 
    - 
    - 
    - 
    - 
    - 
    - 
    - 
    - 
    - 
    - 
    - 
    - 
    - 
    - 
    - 
    - 
    - 
    - 
    - 
    - 
    - 
    - 
    - 
    - 
    - 
    - 
    - 
    - 
    - 
    - 
    - 
    - 
    - 
    - 
    - 
    - 
    - 
    - 
    - 
    - 
    - 
    - 
    - 
    - 
    - 
    - 
    - 
    - 
    - 
    - 
    - 
    - 
    - 
    - 
    - 
    - 
    - 
    - 
    - 
    - 
    - 
    - 
    - 
    - 
    - 
    - 
    - 
    - 
    - 
    - 
    - 
    - 
    - 
    - 
    - 
    - 
    - 
    - 
    - 
    - 
    - 
    - 
    - 
    - 
    - 
    - 
    - 
    - 
    - 
    - 
    - 
    - 
    - 
    - 
    - 
    - 
    - 
    - 
    - 
    - 
    - 
    - 
    - 
    - 
    - 
    - 
    - 
    - 
    - 
    - 
    - 
    - 
    - 
    - 
    - 
    - 
    - 
    - 
    - 
    - 
    - 
    - 
    - 
    - 
    - 
    - 
    - 
    - 
    - 
    - 
    - 
    - 
    - 
    - 
    - 
    - 
    - 
    - 
    - 
    - 
    - 
    - 
    - 
    - 
    - 
    - 
    - 
    - 
    - 
    - 
    - 
    - 
    - 
    - 
    - 
    - 
    - 
    - 
    - 
    - 
    - 
    - 
    - 
    - 
    - 
    - 
    - 
    - 
    - 
    - 
    - 
    - 
    - 
  - row:
    - W
    - 
    - W
    - W
    - W
    - W
    - W
    - W
    - W
    - W
    - W
    - W
    - 
    - W
    - W
    - 
    - W
    - W
    - W
    - W
    - W
    - W
    - W
    - W
    - W
    - W
    - 
    - W
    - 
    - 
    - 
    - 
    - 
    - 
    - 
    - 
    - 
    - 
    - 
    - 
    - 
    - 
    - 
    - 
    - 
    - 
    - 
    - 
    - 
    - 
    - 
    - 
    - 
    - 
    - 
    - 
    - 
    - 
    - 
    - 
    - 
    - 
    - 
    - 
    - 
    - 
    - 
    - 
    - 
    - 
    - 
    - 
    - 
    - 
    - 
    - 
    - 
    - 
    - 
    - 
    - 
    - 
    - 
    - 
    - 
    - 
    - 
    - 
    - 
    - 
    - 
    - 
    - 
    - 
    - 
    - 
    - 
    - 
    - 
    - 
    - 
    - 
    - 
    - 
    - 
    - 
    - 
    - 
    - 
    - 
    - 
    - 
    - 
    - 
    - 
    - 
    - 
    - 
    - 
    - 
    - 
    - 
    - 
    - 
    - 
    - 
    - 
    - 
    - 
    - 
    - 
    - 
    - 
    - 
    - 
    - 
    - 
    - 
    - 
    - 
    - 
    - 
    - 
    - 
    - 
    - 
    - 
    - 
    - 
    - 
    - 
    - 
    - 
    - 
    - 
    - 
    - 
    - 
    - 
    - 
    - 
    - 
    - 
    - 
    - 
    - 
    - 
    - 
    - 
    - 
    - 
    - 
    - 
    - 
    - 
    - 
    - 
    - 
    - 
    - 
    - 
    - 
    - 
    - 
    - 
    - 
    - 
    - 
    - 
    - 
    - 
    - 
    - 
    - 
    - 
    - 
    - 
    - 
    - 
    - 
    - 
    - 
    - 
    - 
    - 
    - 
    - 
    - 
    - 
    - 
    - 
    - 
    - 
    - 
    - 
    - 
    - 
    - 
    - 
    - 
    - 
    - 
    - 
    - 
    - 
    - 
    - 
    - 
    - 
    - 
    - 
    - 
    - 
    - 
    - 
    - 
    - 
    - 
    - 
    - 
    - 
    - 
    - 
    - 
    - 
    - 
    - 
    - 
    - 
    - 
    - 
    - 
    - 
    - 
    - 
    - 
    - 
    - 
    - 
    - 
    - 
    - 
    - 
    - 
    - 
    - 
    - 
    - 
    - 
    - 
    - 
    - 
    - 
    - 
    - 
    - 
    - 
    - 
    - 
    - 
    - 
    - 
    - 
    - 
    - 
    - 
    - 
    - 
    - 
    - 
    - 
    - 
    - 
    - 
    - 
    - 
    - 
    - 
    - 
    - 
    - 
    - 
    - 
    - 
    - 
    - 
    - 
    - 
    - 
    - 
    - 
    - 
    - 
    - 
    - 
    - 
    - 
    - 
    - 
    - 
    - 
    - 
    - 
    - 
    - 
    - 
    - 
    - 
    - 
    - 
    - 
    - 
    - 
    - 
    - 
    - 
    - 
    - 
    - 
    - 
    - 
    - 
    - 
    - 
    - 
    - 
    - 
    - 
    - 
    - 
    - 
    - 
    - 
    - 
    - 
    - 
    - 
    - 
    - 
    - 
    - 
    - 
    - 
    - 
    - 
    - 
    - 
    - 
    - 
    - 
    - 
    - 
    - 
    - 
    - 
    - 
    - 
    - 
    - 
    - 
    - 
    - 
    - 
    - 
    - 
    - 
    - 
    - 
    - 
    - 
    - 
    - 
    - 
    - 
    - 
    - 
    - 
    - 
    - 
    - 
    - 
    - 
    - 
    - 
    - 
    - 
    - 
    - 
    - 
    - 
    - 
    - 
    - 
    - 
    - 
    - 
    - 
    - 
    - 
    - 
    - 
    - 
    - 
    - 
    - 
    - 
    - 
    - 
    - 
    - 
    - 
    - 
    - 
    - 
    - 
    - 
    - 
    - 
    - 
    - 
    - 
    - 
    - 
    - 
    - 
    - 
    - 
    - 
    - 
    - 
    - 
    - 
    - 
    - 
    - 
    - 
    - 
    - 
    - 
    - 
    - 
    - 
    - 
    - 
    - 
    - 
    - 
    - 
    - 
    - 
    - 
    - 
    - 
    - 
    - 
    - 
    - 
    - 
    - 
    - 
    - 
    - 
    - 
    - 
    - 
    - 
    - 
    - 
    - 
    - 
    - 
    - 
    - 
    - 
    - 
    - 
    - 
    - 
    - 
    - 
    - 
    - 
    - 
    - 
    - 
    - 
    - 
    - 
    - 
    - 
    - 
    - 
    - 
    - 
    - 
    - 
    - 
    - 
    - 
    - 
    - 
    - 
    - 
    - 
    - 
    - 
    - 
    - 
    - 
    - 
    - 
    - 
    - 
    - 
    - 
    - 
    - 
    - 
    - 
    - 
    - 
    - 
    - 
    - 
    - 
    - 
    - 
    - 
    - 
    - 
    - 
    - 
    - 
    - 
    - 
    - 
    - 
    - 
    - 
    - 
    - 
    - 
    - 
    - 
    - 
    - 
    - 
    - 
    - 
    - 
    - 
    - 
    - 
    - 
    - 
    - 
    - 
    - 
    - 
    - 
    - 
    - 
    - 
    - 
    - 
    - 
    - 
    - 
    - 
    - 
    - 
    - 
    - 
    - 
    - 
    - 
    - 
    - 
    - 
    - 
    - 
    - 
    - 
    - 
    - 
    - 
    - 
    - 
    - 
    - 
    - 
    - 
    - 
    - 
    - 
    - 
    - 
    - 
    - 
    - 
    - 
    - 
    - 
    - 
    - 
    - 
    - 
    - 
    - 
    - 
    - 
    - 
    - 
    - 
    - 
    - 
    - 
    - 
    - 
    - 
    - 
    - 
    - 
    - 
    - 
    - 
    - 
    - 
    - 
    - 
    - 
    - 
    - 
    - 
    - 
    - 
    - 
    - 
    - 
    - 
    - 
    - 
    - 
    - 
    - 
    - 
    - 
    - 
    - 
    - 
    - 
    - 
    - 
    - 
    - 
    - 
    - 
    - 
    - 
    - 
    - 
    - 
    - 
    - 
    - 
    - 
    - 
    - 
    - 
    - 
    - 
    - 
    - 
    - 
    - 
    - 
    - 
    - 
    - 
    - 
    - 
    - 
    - 
    - 
    - 
    - 
    - 
    - 
    - 
    - 
    - 
    - 
    - 
    - 
    - 
    - 
    - 
    - 
    - 
    - 
    - 
    - 
    - 
    - 
    - 
    - 
    - 
    - 
    - 
    - 
    - 
    - 
    - 
    - 
    - 
    - 
    - 
    - 
    - 
    - 
    - 
    - 
    - 
    - 
    - 
    - 
    - 
    - 
    - 
    - 
    - 
    - 
    - 
    - 
    - 
    - 
    - 
    - 
    - 
    - 
    - 
    - 
    - 
    - 
    - 
    - 
    - 
    - 
    - 
    - 
    - 
    - 
    - 
    - 
    - 
    - 
    - 
    - 
    - 
    - 
    - 
    - 
    - 
    - 
  - row:
    - W
    - 
    - W
    - W
    - W
    - W
    - W
    - W
    - W
    - W
    - W
    - W
    - 
    - W
    - W
    - 
    - W
    - W
    - W
    - W
    - W
    - W
    - W
    - W
    - W
    - W
    - 
    - W
    - 
    - 
    - 
    - 
    - 
    - 
    - 
    - 
    - 
    - 
    - 
    - 
    - 
    - 
    - 
    - 
    - 
    - 
    - 
    - 
    - 
    - 
    - 
    - 
    - 
    - 
    - 
    - 
    - 
    - 
    - 
    - 
    - 
    - 
    - 
    - 
    - 
    - 
    - 
    - 
    - 
    - 
    - 
    - 
    - 
    - 
    - 
    - 
    - 
    - 
    - 
    - 
    - 
    - 
    - 
    - 
    - 
    - 
    - 
    - 
    - 
    - 
    - 
    - 
    - 
    - 
    - 
    - 
    - 
    - 
    - 
    - 
    - 
    - 
    - 
    - 
    - 
    - 
    - 
    - 
    - 
    - 
    - 
    - 
    - 
    - 
    - 
    - 
    - 
    - 
    - 
    - 
    - 
    - 
    - 
    - 
    - 
    - 
    - 
    - 
    - 
    - 
    - 
    - 
    - 
    - 
    - 
    - 
    - 
    - 
    - 
    - 
    - 
    - 
    - 
    - 
    - 
    - 
    - 
    - 
    - 
    - 
    - 
    - 
    - 
    - 
    - 
    - 
    - 
    - 
    - 
    - 
    - 
    - 
    - 
    - 
    - 
    - 
    - 
    - 
    - 
    - 
    - 
    - 
    - 
    - 
    - 
    - 
    - 
    - 
    - 
    - 
    - 
    - 
    - 
    - 
    - 
    - 
    - 
    - 
    - 
    - 
    - 
    - 
    - 
    - 
    - 
    - 
    - 
    - 
    - 
    - 
    - 
    - 
    - 
    - 
    - 
    - 
    - 
    - 
    - 
    - 
    - 
    - 
    - 
    - 
    - 
    - 
    - 
    - 
    - 
    - 
    - 
    - 
    - 
    - 
    - 
    - 
    - 
    - 
    - 
    - 
    - 
    - 
    - 
    - 
    - 
    - 
    - 
    - 
    - 
    - 
    - 
    - 
    - 
    - 
    - 
    - 
    - 
    - 
    - 
    - 
    - 
    - 
    - 
    - 
    - 
    - 
    - 
    - 
    - 
    - 
    - 
    - 
    - 
    - 
    - 
    - 
    - 
    - 
    - 
    - 
    - 
    - 
    - 
    - 
    - 
    - 
    - 
    - 
    - 
    - 
    - 
    - 
    - 
    - 
    - 
    - 
    - 
    - 
    - 
    - 
    - 
    - 
    - 
    - 
    - 
    - 
    - 
    - 
    - 
    - 
    - 
    - 
    - 
    - 
    - 
    - 
    - 
    - 
    - 
    - 
    - 
    - 
    - 
    - 
    - 
    - 
    - 
    - 
    - 
    - 
    - 
    - 
    - 
    - 
    - 
    - 
    - 
    - 
    - 
    - 
    - 
    - 
    - 
    - 
    - 
    - 
    - 
    - 
    - 
    - 
    - 
    - 
    - 
    - 
    - 
    - 
    - 
    - 
    - 
    - 
    - 
    - 
    - 
    - 
    - 
    - 
    - 
    - 
    - 
    - 
    - 
    - 
    - 
    - 
    - 
    - 
    - 
    - 
    - 
    - 
    - 
    - 
    - 
    - 
    - 
    - 
    - 
    - 
    - 
    - 
    - 
    - 
    - 
    - 
    - 
    - 
    - 
    - 
    - 
    - 
    - 
    - 
    - 
    - 
    - 
    - 
    - 
    - 
    - 
    - 
    - 
    - 
    - 
    - 
    - 
    - 
    - 
    - 
    - 
    - 
    - 
    - 
    - 
    - 
    - 
    - 
    - 
    - 
    - 
    - 
    - 
    - 
    - 
    - 
    - 
    - 
    - 
    - 
    - 
    - 
    - 
    - 
    - 
    - 
    - 
    - 
    - 
    - 
    - 
    - 
    - 
    - 
    - 
    - 
    - 
    - 
    - 
    - 
    - 
    - 
    - 
    - 
    - 
    - 
    - 
    - 
    - 
    - 
    - 
    - 
    - 
    - 
    - 
    - 
    - 
    - 
    - 
    - 
    - 
    - 
    - 
    - 
    - 
    - 
    - 
    - 
    - 
    - 
    - 
    - 
    - 
    - 
    - 
    - 
    - 
    - 
    - 
    - 
    - 
    - 
    - 
    - 
    - 
    - 
    - 
    - 
    - 
    - 
    - 
    - 
    - 
    - 
    - 
    - 
    - 
    - 
    - 
    - 
    - 
    - 
    - 
    - 
    - 
    - 
    - 
    - 
    - 
    - 
    - 
    - 
    - 
    - 
    - 
    - 
    - 
    - 
    - 
    - 
    - 
    - 
    - 
    - 
    - 
    - 
    - 
    - 
    - 
    - 
    - 
    - 
    - 
    - 
    - 
    - 
    - 
    - 
    - 
    - 
    - 
    - 
    - 
    - 
    - 
    - 
    - 
    - 
    - 
    - 
    - 
    - 
    - 
    - 
    - 
    - 
    - 
    - 
    - 
    - 
    - 
    - 
    - 
    - 
    - 
    - 
    - 
    - 
    - 
    - 
    - 
    - 
    - 
    - 
    - 
    - 
    - 
    - 
    - 
    - 
    - 
    - 
    - 
    - 
    - 
    - 
    - 
    - 
    - 
    - 
    - 
    - 
    - 
    - 
    - 
    - 
    - 
    - 
    - 
    - 
    - 
    - 
    - 
    - 
    - 
    - 
    - 
    - 
    - 
    - 
    - 
    - 
    - 
    - 
    - 
    - 
    - 
    - 
    - 
    - 
    - 
    - 
    - 
    - 
    - 
    - 
    - 
    - 
    - 
    - 
    - 
    - 
    - 
    - 
    - 
    - 
    - 
    - 
    - 
    - 
    - 
    - 
    - 
    - 
    - 
    - 
    - 
    - 
    - 
    - 
    - 
    - 
    - 
    - 
    - 
    - 
    - 
    - 
    - 
    - 
    - 
    - 
    - 
    - 
    - 
    - 
    - 
    - 
    - 
    - 
    - 
    - 
    - 
    - 
    - 
    - 
    - 
    - 
    - 
    - 
    - 
    - 
    - 
    - 
    - 
    - 
    - 
    - 
    - 
    - 
    - 
    - 
    - 
    - 
    - 
    - 
    - 
    - 
    - 
    - 
    - 
    - 
    - 
    - 
    - 
    - 
    - 
    - 
    - 
    - 
    - 
    - 
    - 
    - 
    - 
    - 
    - 
    - 
    - 
    - 
    - 
    - 
    - 
    - 
    - 
    - 
    - 
    - 
    - 
    - 
    - 
    - 
    - 
    - 
    - 
    - 
    - 
    - 
    - 
    - 
    - 
    - 
    - 
    - 
    - 
    - 
    - 
    - 
    - 
    - 
    - 
    - 
    - 
    - 
    - 
    - 
    - 
    - 
    - 
    - 
    - 
    - 
    - 
    - 
    - 
    - 
    - 
    - 
    - 
    - 
    - 
    - 
    - 
    - 
    - 
    - 
    - 
    - 
    - 
    - 
    - 
    - 
    - 
    - 
    - 
    - 
    - 
    - 
    - 
    - 
    - 
    - 
    - 
    - 
    - 
    - 
    - 
    - 
    - 
    - 
    - 
    - 
    - 
    - 
  - row:
    - W
    - 
    - 
    - 
    - 
    - 
    - 
    - 
    - 
    - 
    - 
    - 
    - 
    - 
    - 
    - 
    - 
    - 
    - 
    - 
    - 
    - 
    - 
    - 
    - 
    - 
    - 
    - W
    - 
    - 
    - 
    - 
    - 
    - 
    - 
    - 
    - 
    - 
    - 
    - 
    - 
    - 
    - 
    - 
    - 
    - 
    - 
    - 
    - 
    - 
    - 
    - 
    - 
    - 
    - 
    - 
    - 
    - 
    - 
    - 
    - 
    - 
    - 
    - 
    - 
    - 
    - 
    - 
    - 
    - 
    - 
    - 
    - 
    - 
    - 
    - 
    - 
    - 
    - 
    - 
    - 
    - 
    - 
    - 
    - 
    - 
    - 
    - 
    - 
    - 
    - 
    - 
    - 
    - 
    - 
    - 
    - 
    - 
    - 
    - 
    - 
    - 
    - 
    - 
    - 
    - 
    - 
    - 
    - 
    - 
    - 
    - 
    - 
    - 
    - 
    - 
    - 
    - 
    - 
    - 
    - 
    - 
    - 
    - 
    - 
    - 
    - 
    - 
    - 
    - 
    - 
    - 
    - 
    - 
    - 
    - 
    - 
    - 
    - 
    - 
    - 
    - 
    - 
    - 
    - 
    - 
    - 
    - 
    - 
    - 
    - 
    - 
    - 
    - 
    - 
    - 
    - 
    - 
    - 
    - 
    - 
    - 
    - 
    - 
    - 
    - 
    - 
    - 
    - 
    - 
    - 
    - 
    - 
    - 
    - 
    - 
    - 
    - 
    - 
    - 
    - 
    - 
    - 
    - 
    - 
    - 
    - 
    - 
    - 
    - 
    - 
    - 
    - 
    - 
    - 
    - 
    - 
    - 
    - 
    - 
    - 
    - 
    - 
    - 
    - 
    - 
    - 
    - 
    - 
    - 
    - 
    - 
    - 
    - 
    - 
    - 
    - 
    - 
    - 
    - 
    - 
    - 
    - 
    - 
    - 
    - 
    - 
    - 
    - 
    - 
    - 
    - 
    - 
    - 
    - 
    - 
    - 
    - 
    - 
    - 
    - 
    - 
    - 
    - 
    - 
    - 
    - 
    - 
    - 
    - 
    - 
    - 
    - 
    - 
    - 
    - 
    - 
    - 
    - 
    - 
    - 
    - 
    - 
    - 
    - 
    - 
    - 
    - 
    - 
    - 
    - 
    - 
    - 
    - 
    - 
    - 
    - 
    - 
    - 
    - 
    - 
    - 
    - 
    - 
    - 
    - 
    - 
    - 
    - 
    - 
    - 
    - 
    - 
    - 
    - 
    - 
    - 
    - 
    - 
    - 
    - 
    - 
    - 
    - 
    - 
    - 
    - 
    - 
    - 
    - 
    - 
    - 
    - 
    - 
    - 
    - 
    - 
    - 
    - 
    - 
    - 
    - 
    - 
    - 
    - 
    - 
    - 
    - 
    - 
    - 
    - 
    - 
    - 
    - 
    - 
    - 
    - 
    - 
    - 
    - 
    - 
    - 
    - 
    - 
    - 
    - 
    - 
    - 
    - 
    - 
    - 
    - 
    - 
    - 
    - 
    - 
    - 
    - 
    - 
    - 
    - 
    - 
    - 
    - 
    - 
    - 
    - 
    - 
    - 
    - 
    - 
    - 
    - 
    - 
    - 
    - 
    - 
    - 
    - 
    - 
    - 
    - 
    - 
    - 
    - 
    - 
    - 
    - 
    - 
    - 
    - 
    - 
    - 
    - 
    - 
    - 
    - 
    - 
    - 
    - 
    - 
    - 
    - 
    - 
    - 
    - 
    - 
    - 
    - 
    - 
    - 
    - 
    - 
    - 
    - 
    - 
    - 
    - 
    - 
    - 
    - 
    - 
    - 
    - 
    - 
    - 
    - 
    - 
    - 
    - 
    - 
    - 
    - 
    - 
    - 
    - 
    - 
    - 
    - 
    - 
    - 
    - 
    - 
    - 
    - 
    - 
    - 
    - 
    - 
    - 
    - 
    - 
    - 
    - 
    - 
    - 
    - 
    - 
    - 
    - 
    - 
    - 
    - 
    - 
    - 
    - 
    - 
    - 
    - 
    - 
    - 
    - 
    - 
    - 
    - 
    - 
    - 
    - 
    - 
    - 
    - 
    - 
    - 
    - 
    - 
    - 
    - 
    - 
    - 
    - 
    - 
    - 
    - 
    - 
    - 
    - 
    - 
    - 
    - 
    - 
    - 
    - 
    - 
    - 
    - 
    - 
    - 
    - 
    - 
    - 
    - 
    - 
    - 
    - 
    - 
    - 
    - 
    - 
    - 
    - 
    - 
    - 
    - 
    - 
    - 
    - 
    - 
    - 
    - 
    - 
    - 
    - 
    - 
    - 
    - 
    - 
    - 
    - 
    - 
    - 
    - 
    - 
    - 
    - 
    - 
    - 
    - 
    - 
    - 
    - 
    - 
    - 
    - 
    - 
    - 
    - 
    - 
    - 
    - 
    - 
    - 
    - 
    - 
    - 
    - 
    - 
    - 
    - 
    - 
    - 
    - 
    - 
    - 
    - 
    - 
    - 
    - 
    - 
    - 
    - 
    - 
    - 
    - 
    - 
    - 
    - 
    - 
    - 
    - 
    - 
    - 
    - 
    - 
    - 
    - 
    - 
    - 
    - 
    - 
    - 
    - 
    - 
    - 
    - 
    - 
    - 
    - 
    - 
    - 
    - 
    - 
    - 
    - 
    - 
    - 
    - 
    - 
    - 
    - 
    - 
    - 
    - 
    - 
    - 
    - 
    - 
    - 
    - 
    - 
    - 
    - 
    - 
    - 
    - 
    - 
    - 
    - 
    - 
    - 
    - 
    - 
    - 
    - 
    - 
    - 
    - 
    - 
    - 
    - 
    - 
    - 
    - 
    - 
    - 
    - 
    - 
    - 
    - 
    - 
    - 
    - 
    - 
    - 
    - 
    - 
    - 
    - 
    - 
    - 
    - 
    - 
    - 
    - 
    - 
    - 
    - 
    - 
    - 
    - 
    - 
    - 
    - 
    - 
    - 
    - 
    - 
    - 
    - 
    - 
    - 
    - 
    - 
    - 
    - 
    - 
    - 
    - 
    - 
    - 
    - 
    - 
    - 
    - 
    - 
    - 
    - 
    - 
    - 
    - 
    - 
    - 
    - 
    - 
    - 
    - 
    - 
    - 
    - 
    - 
    - 
    - 
    - 
    - 
    - 
    - 
    - 
    - 
    - 
    - 
    - 
    - 
    - 
    - 
    - 
    - 
    - 
    - 
    - 
    - 
    - 
    - 
    - 
    - 
    - 
    - 
    - 
    - 
    - 
    - 
    - 
    - 
    - 
    - 
    - 
    - 
    - 
    - 
    - 
    - 
    - 
    - 
    - 
    - 
    - 
    - 
    - 
    - 
    - 
    - 
    - 
    - 
    - 
    - 
    - 
    - 
    - 
    - 
    - 
    - 
    - 
    - 
    - 
    - 
    - 
    - 
    - 
    - 
    - 
    - 
    - 
    - 
    - 
    - 
    - 
    - 
    - 
    - 
    - 
    - 
    - 
    - 
    - 
    - 
    - 
    - 
    - 
    - 
    - 
    - 
    - 
    - 
    - 
    - 
    - 
    - 
    - 
    - 
    - 
    - 
    - 
    - 
    - 
    - 
    - 
    - 
    - 
    - 
    - 
    - 
    - 
    - 
    - 
    - 
    - 
    - 
    - 
    - 
    - 
    - 
    - 
  - row:
    - W
    - W
    - W
    - W
    - W
    - W
    - W
    - W
    - W
    - W
    - W
    - W
    - W
    - W
    - W
    - W
    - W
    - W
    - W
    - W
    - W
    - W
    - W
    - W
    - W
    - W
    - W
    - W
    - 
    - 
    - 
    - 
    - 
    - 
    - 
    - 
    - 
    - 
    - 
    - 
    - 
    - 
    - 
    - 
    - 
    - 
    - 
    - 
    - 
    - 
    - 
    - 
    - 
    - 
    - 
    - 
    - 
    - 
    - 
    - 
    - 
    - 
    - 
    - 
    - 
    - 
    - 
    - 
    - 
    - 
    - 
    - 
    - 
    - 
    - 
    - 
    - 
    - 
    - 
    - 
    - 
    - 
    - 
    - 
    - 
    - 
    - 
    - 
    - 
    - 
    - 
    - 
    - 
    - 
    - 
    - 
    - 
    - 
    - 
    - 
    - 
    - 
    - 
    - 
    - 
    - 
    - 
    - 
    - 
    - 
    - 
    - 
    - 
    - 
    - 
    - 
    - 
    - 
    - 
    - 
    - 
    - 
    - 
    - 
    - 
    - 
    - 
    - 
    - 
    - 
    - 
    - 
    - 
    - 
    - 
    - 
    - 
    - 
    - 
    - 
    - 
    - 
    - 
    - 
    - 
    - 
    - 
    - 
    - 
    - 
    - 
    - 
    - 
    - 
    - 
    - 
    - 
    - 
    - 
    - 
    - 
    - 
    - 
    - 
    - 
    - 
    - 
    - 
    - 
    - 
    - 
    - 
    - 
    - 
    - 
    - 
    - 
    - 
    - 
    - 
    - 
    - 
    - 
    - 
    - 
    - 
    - 
    - 
    - 
    - 
    - 
    - 
    - 
    - 
    - 
    - 
    - 
    - 
    - 
    - 
    - 
    - 
    - 
    - 
    - 
    - 
    - 
    - 
    - 
    - 
    - 
    - 
    - 
    - 
    - 
    - 
    - 
    - 
    - 
    - 
    - 
    - 
    - 
    - 
    - 
    - 
    - 
    - 
    - 
    - 
    - 
    - 
    - 
    - 
    - 
    - 
    - 
    - 
    - 
    - 
    - 
    - 
    - 
    - 
    - 
    - 
    - 
    - 
    - 
    - 
    - 
    - 
    - 
    - 
    - 
    - 
    - 
    - 
    - 
    - 
    - 
    - 
    - 
    - 
    - 
    - 
    - 
    - 
    - 
    - 
    - 
    - 
    - 
    - 
    - 
    - 
    - 
    - 
    - 
    - 
    - 
    - 
    - 
    - 
    - 
    - 
    - 
    - 
    - 
    - 
    - 
    - 
    - 
    - 
    - 
    - 
    - 
    - 
    - 
    - 
    - 
    - 
    - 
    - 
    - 
    - 
    - 
    - 
    - 
    - 
    - 
    - 
    - 
    - 
    - 
    - 
    - 
    - 
    - 
    - 
    - 
    - 
    - 
    - 
    - 
    - 
    - 
    - 
    - 
    - 
    - 
    - 
    - 
    - 
    - 
    - 
    - 
    - 
    - 
    - 
    - 
    - 
    - 
    - 
    - 
    - 
    - 
    - 
    - 
    - 
    - 
    - 
    - 
    - 
    - 
    - 
    - 
    - 
    - 
    - 
    - 
    - 
    - 
    - 
    - 
    - 
    - 
    - 
    - 
    - 
    - 
    - 
    - 
    - 
    - 
    - 
    - 
    - 
    - 
    - 
    - 
    - 
    - 
    - 
    - 
    - 
    - 
    - 
    - 
    - 
    - 
    - 
    - 
    - 
    - 
    - 
    - 
    - 
    - 
    - 
    - 
    - 
    - 
    - 
    - 
    - 
    - 
    - 
    - 
    - 
    - 
    - 
    - 
    - 
    - 
    - 
    - 
    - 
    - 
    - 
    - 
    - 
    - 
    - 
    - 
    - 
    - 
    - 
    - 
    - 
    - 
    - 
    - 
    - 
    - 
    - 
    - 
    - 
    - 
    - 
    - 
    - 
    - 
    - 
    - 
    - 
    - 
    - 
    - 
    - 
    - 
    - 
    - 
    - 
    - 
    - 
    - 
    - 
    - 
    - 
    - 
    - 
    - 
    - 
    - 
    - 
    - 
    - 
    - 
    - 
    - 
    - 
    - 
    - 
    - 
    - 
    - 
    - 
    - 
    - 
    - 
    - 
    - 
    - 
    - 
    - 
    - 
    - 
    - 
    - 
    - 
    - 
    - 
    - 
    - 
    - 
    - 
    - 
    - 
    - 
    - 
    - 
    - 
    - 
    - 
    - 
    - 
    - 
    - 
    - 
    - 
    - 
    - 
    - 
    - 
    - 
    - 
    - 
    - 
    - 
    - 
    - 
    - 
    - 
    - 
    - 
    - 
    - 
    - 
    - 
    - 
    - 
    - 
    - 
    - 
    - 
    - 
    - 
    - 
    - 
    - 
    - 
    - 
    - 
    - 
    - 
    - 
    - 
    - 
    - 
    - 
    - 
    - 
    - 
    - 
    - 
    - 
    - 
    - 
    - 
    - 
    - 
    - 
    - 
    - 
    - 
    - 
    - 
    - 
    - 
    - 
    - 
    - 
    - 
    - 
    - 
    - 
    - 
    - 
    - 
    - 
    - 
    - 
    - 
    - 
    - 
    - 
    - 
    - 
    - 
    - 
    - 
    - 
    - 
    - 
    - 
    - 
    - 
    - 
    - 
    - 
    - 
    - 
    - 
    - 
    - 
    - 
    - 
    - 
    - 
    - 
    - 
    - 
    - 
    - 
    - 
    - 
    - 
    - 
    - 
    - 
    - 
    - 
    - 
    - 
    - 
    - 
    - 
    - 
    - 
    - 
    - 
    - 
    - 
    - 
    - 
    - 
    - 
    - 
    - 
    - 
    - 
    - 
    - 
    - 
    - 
    - 
    - 
    - 
    - 
    - 
    - 
    - 
    - 
    - 
    - 
    - 
    - 
    - 
    - 
    - 
    - 
    - 
    - 
    - 
    - 
    - 
    - 
    - 
    - 
    - 
    - 
    - 
    - 
    - 
    - 
    - 
    - 
    - 
    - 
    - 
    - 
    - 
    - 
    - 
    - 
    - 
    - 
    - 
    - 
    - 
    - 
    - 
    - 
    - 
    - 
    - 
    - 
    - 
    - 
    - 
    - 
    - 
    - 
    - 
    - 
    - 
    - 
    - 
    - 
    - 
    - 
    - 
    - 
    - 
    - 
    - 
    - 
    - 
    - 
    - 
    - 
    - 
    - 
    - 
    - 
    - 
    - 
    - 
    - 
    - 
    - 
    - 
    - 
    - 
    - 
    - 
    - 
    - 
    - 
    - 
    - 
    - 
    - 
    - 
    - 
    - 
    - 
    - 
    - 
    - 
    - 
    - 
    - 
    - 
    - 
    - 
    - 
    - 
    - 
    - 
    - 
    - 
    - 
    - 
    - 
    - 
    - 
    - 
    - 
    - 
    - 
    - 
    - 
    - 
    - 
    - 
    - 
    - 
    - 
    - 
    - 
    - 
    - 
    - 
    - 
    - 
    - 
    - 
    - 
    - 
    - 
    - 
    - 
    - 
    - 
    - 
    - 
    - 
    - 
    - 
    - 
    - 
    - 
    - 
    - 
    - 
    - 
    - 
    - 
    - 
    - 
    - 
    - 
    - 
    - 
    - 
    - 
    - 
    - 
    - 
    - 
    - 
    - 
    - 
    - 
    - 
    - 
    - 
    - 
    - 
    - 
    - 
    - 
    - 
    - 
    - 
    - 
    - 
    - 
    - 
    - 
    - 
    - 
    - 
    - 
    - 
    - 
    - 
    - 
    - 
    - 
    - 
    - 
    - 
    - 
    - 
    - 
    - 
    - 
    - 
    - 
    - 
    - 
    - 
    - 
    - 
    - 
