%YAML 1.1
%TAG !u! tag:unity3d.com,2011:
--- !u!1 &5580065451718756777
GameObject:
  m_ObjectHideFlags: 0
  m_CorrespondingSourceObject: {fileID: 0}
  m_PrefabInstance: {fileID: 0}
  m_PrefabAsset: {fileID: 0}
  serializedVersion: 6
  m_Component:
  - component: {fileID: 4343024177082664122}
  - component: {fileID: 4806032521938342371}
  m_Layer: 0
  m_Name: LEVEL 1
  m_TagString: Untagged
  m_Icon: {fileID: 0}
  m_NavMeshLayer: 0
  m_StaticEditorFlags: 0
  m_IsActive: 1
--- !u!4 &4343024177082664122
Transform:
  m_ObjectHideFlags: 0
  m_CorrespondingSourceObject: {fileID: 0}
  m_PrefabInstance: {fileID: 0}
  m_PrefabAsset: {fileID: 0}
  m_GameObject: {fileID: 5580065451718756777}
  m_LocalRotation: {x: 0, y: 0, z: 0, w: 1}
  m_LocalPosition: {x: 3.582138, y: -1.3481971, z: -2.2843347}
  m_LocalScale: {x: 1, y: 1, z: 1}
  m_Children: []
  m_Father: {fileID: 0}
  m_RootOrder: 0
  m_LocalEulerAnglesHint: {x: 0, y: 0, z: 0}
--- !u!114 &4806032521938342371
MonoBehaviour:
  m_ObjectHideFlags: 0
  m_CorrespondingSourceObject: {fileID: 0}
  m_PrefabInstance: {fileID: 0}
  m_PrefabAsset: {fileID: 0}
  m_GameObject: {fileID: 5580065451718756777}
  m_Enabled: 1
  m_EditorHideFlags: 0
  m_Script: {fileID: 11500000, guid: 67ac06564161ee04c8d9dcbf112d944c, type: 3}
  m_Name: 
  m_EditorClassIdentifier: 
  layout: {fileID: 11400000, guid: b7142135e92e7b14fa0a361787fe277f, type: 2}
  map: {fileID: 2800000, guid: bb8e4ce355d9e99429b35ece06eeb88b, type: 3}
  frightenedTime: 7
  waves:
  - scatterTime: 7
    chaseTime: 20
    finished: 1
  - scatterTime: 7
    chaseTime: 20
    finished: 1
  - scatterTime: 5
    chaseTime: 20
    finished: 1
  - scatterTime: 5
    chaseTime: 0
    finished: 1
  colorMappings:
  - color: {r: 0, g: 0, b: 0, a: 1}
    type: 0
  - color: {r: 0.19607843, g: 0.3529412, b: 0.27058825, a: 1}
    type: 1
  - color: {r: 1, g: 0, b: 0, a: 1}
    type: 3
  - color: {r: 0, g: 0.5882353, b: 1, a: 1}
    type: 4
  - color: {r: 1, g: 0, b: 1, a: 1}
    type: 5
  - color: {r: 1, g: 0.39215687, b: 0, a: 1}
    type: 6
  - color: {r: 0.39215687, g: 1, b: 0, a: 1}
    type: 8
  - color: {r: 1, g: 1, b: 0.5882353, a: 1}
    type: 2
  - color: {r: 1, g: 1, b: 1, a: 1}
    type: 14
  - color: {r: 0.39215687, g: 0.39215687, b: 0.5882353, a: 1}
    type: 11
  - color: {r: 0.627451, g: 0, b: 1, a: 1}
    type: 12
  - color: {r: 0.19607843, g: 0.23529412, b: 0.19607843, a: 1}
    type: 13
  - color: {r: 1, g: 1, b: 0, a: 1}
    type: 7
  - color: {r: 0.47058824, g: 0.47843137, b: 0.06666667, a: 1}
    type: 9
  - color: {r: 0.07058824, g: 0.5568628, b: 0.34509805, a: 1}
    type: 10
  ghosts:
  - {fileID: 0}
  - {fileID: 0}
  - {fileID: 0}
  - {fileID: 0}
  player: {fileID: 0}
  dim: {x: 64, y: 64}
  wallPrefab: {fileID: 6968717413891860029, guid: 4ccc1af54ff7b1f42b24da622aff7c34, type: 3}
  coinPrefab: {fileID: 1576935396380617934, guid: 83a46b4622701df47ac5e699f803dd85, type: 3}
  totalCoins: 255
  eatedCoins: 0
