%YAML 1.1
%TAG !u! tag:unity3d.com,2011:
--- !u!21 &2100000
Material:
  serializedVersion: 6
  m_ObjectHideFlags: 0
  m_CorrespondingSourceObject: {fileID: 0}
  m_PrefabInstance: {fileID: 0}
  m_PrefabAsset: {fileID: 0}
  m_Name: PieceMAT_Black
  m_Shader: {fileID: -6465566751694194690, guid: 42a24b87f159b264c96de470763f3cb6, type: 3}
  m_ShaderKeywords: 
  m_LightmapFlags: 4
  m_EnableInstancingVariants: 1
  m_DoubleSidedGI: 0
  m_CustomRenderQueue: -1
  stringTagMap:
    MotionVector: User
  disabledShaderPasses:
  - MOTIONVECTORS
  m_SavedProperties:
    serializedVersion: 3
    m_TexEnvs:
    - Texture2D_1208855:
        m_Texture: {fileID: 2800000, guid: e5de38ba3c7f69142bca3c25f048d3f2, type: 3}
        m_Scale: {x: 1, y: 1}
        m_Offset: {x: 0, y: 0}
    - Texture2D_70797AD2:
        m_Texture: {fileID: 2800000, guid: c4a6412fcafb2804eb9449813373219a, type: 3}
        m_Scale: {x: 1, y: 1}
        m_Offset: {x: 0, y: 0}
    - Texture2D_E20C553F:
        m_Texture: {fileID: 2800000, guid: 6ef9d7a9e00a9ab47a803763a1daaf0a, type: 3}
        m_Scale: {x: 1, y: 1}
        m_Offset: {x: 0, y: 0}
    m_Floats:
    - Vector1_74502C63: 0
    - Vector1_DC99DDDF: 100
    m_Colors:
    - Color_8EBE1696: {r: 64, g: 21.33333, b: 0, a: 0}
    - Color_FA338826: {r: 1, g: 1, b: 1, a: 0}
  m_BuildTextureStacks: []
