%YAML 1.1
%TAG !u! tag:unity3d.com,2011:
--- !u!74 &7400000
AnimationClip:
  m_ObjectHideFlags: 0
  m_CorrespondingSourceObject: {fileID: 0}
  m_PrefabInstance: {fileID: 0}
  m_PrefabAsset: {fileID: 0}
  m_Name: On
  serializedVersion: 6
  m_Legacy: 0
  m_Compressed: 0
  m_UseHighQualityCurve: 1
  m_RotationCurves: []
  m_CompressedRotationCurves: []
  m_EulerCurves: []
  m_PositionCurves: []
  m_ScaleCurves: []
  m_FloatCurves: []
  m_PPtrCurves:
  - curve:
    - time: 0
      value: {fileID: 21300000, guid: 8801be44caa415b42abdc48c723b0f87, type: 3}
    - time: 0.083333336
      value: {fileID: 21300000, guid: 4744cc00a8a698941b67c0118853b850, type: 3}
    - time: 0.11666667
      value: {fileID: 21300000, guid: 1688ce5595db7af4d8030e4c730b9bc6, type: 3}
    - time: 0.2
      value: {fileID: 21300000, guid: 54181c939fa6a054f8b7692ea656ef00, type: 3}
    - time: 0.26666668
      value: {fileID: 21300000, guid: 452f20bc8e4d8c747836f517429da756, type: 3}
    - time: 0.31666666
      value: {fileID: 21300000, guid: 3625aa88b451ca64c9d45d923898f306, type: 3}
    - time: 0.38333333
      value: {fileID: 21300000, guid: 8326bf509eeea34499c27dbc2bc665e3, type: 3}
    - time: 0.46666667
      value: {fileID: 21300000, guid: 2eb4baffcda1eb941abcd605d17cd998, type: 3}
    - time: 0.5
      value: {fileID: 21300000, guid: feb339ce007940548aa53aa7a4748fd9, type: 3}
    - time: 0.5833333
      value: {fileID: 21300000, guid: bd197b3806b348a41acc5b9f65c69903, type: 3}
    attribute: m_Sprite
    path: 
    classID: 212
    script: {fileID: 0}
  m_SampleRate: 60
  m_WrapMode: 0
  m_Bounds:
    m_Center: {x: 0, y: 0, z: 0}
    m_Extent: {x: 0, y: 0, z: 0}
  m_ClipBindingConstant:
    genericBindings:
    - serializedVersion: 2
      path: 0
      attribute: 0
      script: {fileID: 0}
      typeID: 212
      customType: 23
      isPPtrCurve: 1
    pptrCurveMapping:
    - {fileID: 21300000, guid: 8801be44caa415b42abdc48c723b0f87, type: 3}
    - {fileID: 21300000, guid: 4744cc00a8a698941b67c0118853b850, type: 3}
    - {fileID: 21300000, guid: 1688ce5595db7af4d8030e4c730b9bc6, type: 3}
    - {fileID: 21300000, guid: 54181c939fa6a054f8b7692ea656ef00, type: 3}
    - {fileID: 21300000, guid: 452f20bc8e4d8c747836f517429da756, type: 3}
    - {fileID: 21300000, guid: 3625aa88b451ca64c9d45d923898f306, type: 3}
    - {fileID: 21300000, guid: 8326bf509eeea34499c27dbc2bc665e3, type: 3}
    - {fileID: 21300000, guid: 2eb4baffcda1eb941abcd605d17cd998, type: 3}
    - {fileID: 21300000, guid: feb339ce007940548aa53aa7a4748fd9, type: 3}
    - {fileID: 21300000, guid: bd197b3806b348a41acc5b9f65c69903, type: 3}
  m_AnimationClipSettings:
    serializedVersion: 2
    m_AdditiveReferencePoseClip: {fileID: 0}
    m_AdditiveReferencePoseTime: 0
    m_StartTime: 0
    m_StopTime: 0.59999996
    m_OrientationOffsetY: 0
    m_Level: 0
    m_CycleOffset: 0
    m_HasAdditiveReferencePose: 0
    m_LoopTime: 1
    m_LoopBlend: 0
    m_LoopBlendOrientation: 0
    m_LoopBlendPositionY: 0
    m_LoopBlendPositionXZ: 0
    m_KeepOriginalOrientation: 0
    m_KeepOriginalPositionY: 1
    m_KeepOriginalPositionXZ: 0
    m_HeightFromFeet: 0
    m_Mirror: 0
  m_EditorCurves: []
  m_EulerEditorCurves: []
  m_HasGenericRootTransform: 0
  m_HasMotionFloatCurves: 0
  m_Events: []
