%YAML 1.1
%TAG !u! tag:unity3d.com,2011:
--- !u!74 &7400000
AnimationClip:
  m_ObjectHideFlags: 0
  m_CorrespondingSourceObject: {fileID: 0}
  m_PrefabInstance: {fileID: 0}
  m_PrefabAsset: {fileID: 0}
  m_Name: Run
  serializedVersion: 6
  m_Legacy: 0
  m_Compressed: 0
  m_UseHighQualityCurve: 1
  m_RotationCurves: []
  m_CompressedRotationCurves: []
  m_EulerCurves: []
  m_PositionCurves: []
  m_ScaleCurves: []
  m_FloatCurves: []
  m_PPtrCurves:
  - curve:
    - time: 0
      value: {fileID: 21300000, guid: 92a23d4a983b52745a2a3e38c48ab0d4, type: 3}
    - time: 0.033333335
      value: {fileID: 21300000, guid: f66fc88bc6915c54f974623d7de0341c, type: 3}
    - time: 0.06666667
      value: {fileID: 21300000, guid: 7b8b0715280640b42a1a0a5774f24693, type: 3}
    - time: 0.11666667
      value: {fileID: 21300000, guid: d23c6764b56e45647b390bbe82a05d37, type: 3}
    - time: 0.15
      value: {fileID: 21300000, guid: 75a7b81272455854fa838f6b2e9f5ec4, type: 3}
    - time: 0.2
      value: {fileID: 21300000, guid: 068d4a8380bdea4459ef53ade9c8f5f8, type: 3}
    - time: 0.23333333
      value: {fileID: 21300000, guid: a30e1d2874c339f44aeeecdb08f8e867, type: 3}
    - time: 0.26666668
      value: {fileID: 21300000, guid: 111f2b91286d6cf4581ec901d0ae70ee, type: 3}
    - time: 0.3
      value: {fileID: 21300000, guid: 20dca9839cdddd44f80d3903786cd1fe, type: 3}
    - time: 0.35
      value: {fileID: 21300000, guid: 401b8b9301d6908499f4dbc0f8c00ded, type: 3}
    - time: 0.38333333
      value: {fileID: 21300000, guid: ca124420d6dd7fa4fbde5e9c1162c68c, type: 3}
    - time: 0.43333334
      value: {fileID: 21300000, guid: dd5e9affb3f61b046b35d05b86dd3b4e, type: 3}
    - time: 0.46666667
      value: {fileID: 21300000, guid: 343bb22892e81e74aa93a504b66f17d1, type: 3}
    - time: 0.5
      value: {fileID: 21300000, guid: 0245b4ce041308245b7bb25a187afd76, type: 3}
    attribute: m_Sprite
    path: 
    classID: 212
    script: {fileID: 0}
  m_SampleRate: 60
  m_WrapMode: 0
  m_Bounds:
    m_Center: {x: 0, y: 0, z: 0}
    m_Extent: {x: 0, y: 0, z: 0}
  m_ClipBindingConstant:
    genericBindings:
    - serializedVersion: 2
      path: 0
      attribute: 0
      script: {fileID: 0}
      typeID: 212
      customType: 23
      isPPtrCurve: 1
    pptrCurveMapping:
    - {fileID: 21300000, guid: 92a23d4a983b52745a2a3e38c48ab0d4, type: 3}
    - {fileID: 21300000, guid: f66fc88bc6915c54f974623d7de0341c, type: 3}
    - {fileID: 21300000, guid: 7b8b0715280640b42a1a0a5774f24693, type: 3}
    - {fileID: 21300000, guid: d23c6764b56e45647b390bbe82a05d37, type: 3}
    - {fileID: 21300000, guid: 75a7b81272455854fa838f6b2e9f5ec4, type: 3}
    - {fileID: 21300000, guid: 068d4a8380bdea4459ef53ade9c8f5f8, type: 3}
    - {fileID: 21300000, guid: a30e1d2874c339f44aeeecdb08f8e867, type: 3}
    - {fileID: 21300000, guid: 111f2b91286d6cf4581ec901d0ae70ee, type: 3}
    - {fileID: 21300000, guid: 20dca9839cdddd44f80d3903786cd1fe, type: 3}
    - {fileID: 21300000, guid: 401b8b9301d6908499f4dbc0f8c00ded, type: 3}
    - {fileID: 21300000, guid: ca124420d6dd7fa4fbde5e9c1162c68c, type: 3}
    - {fileID: 21300000, guid: dd5e9affb3f61b046b35d05b86dd3b4e, type: 3}
    - {fileID: 21300000, guid: 343bb22892e81e74aa93a504b66f17d1, type: 3}
    - {fileID: 21300000, guid: 0245b4ce041308245b7bb25a187afd76, type: 3}
  m_AnimationClipSettings:
    serializedVersion: 2
    m_AdditiveReferencePoseClip: {fileID: 0}
    m_AdditiveReferencePoseTime: 0
    m_StartTime: 0
    m_StopTime: 0.51666665
    m_OrientationOffsetY: 0
    m_Level: 0
    m_CycleOffset: 0
    m_HasAdditiveReferencePose: 0
    m_LoopTime: 1
    m_LoopBlend: 0
    m_LoopBlendOrientation: 0
    m_LoopBlendPositionY: 0
    m_LoopBlendPositionXZ: 0
    m_KeepOriginalOrientation: 0
    m_KeepOriginalPositionY: 1
    m_KeepOriginalPositionXZ: 0
    m_HeightFromFeet: 0
    m_Mirror: 0
  m_EditorCurves: []
  m_EulerEditorCurves: []
  m_HasGenericRootTransform: 0
  m_HasMotionFloatCurves: 0
  m_Events: []
