%YAML 1.1
%TAG !u! tag:unity3d.com,2011:
--- !u!64 &2116463052553141879
MeshCollider:
  m_ObjectHideFlags: 0
  m_CorrespondingSourceObject: {fileID: 0}
  m_PrefabInstance: {fileID: 0}
  m_PrefabAsset: {fileID: 0}
  m_GameObject: {fileID: 3003542626861086142}
  m_Material: {fileID: 0}
  m_IsTrigger: 0
  m_Enabled: 1
  serializedVersion: 4
  m_Convex: 0
  m_CookingOptions: 30
  m_Mesh: {fileID: 4300000, guid: 3ebcae0daf8394e548da469833b04106, type: 3}
--- !u!1 &4025663580295834181
GameObject:
  m_ObjectHideFlags: 0
  m_CorrespondingSourceObject: {fileID: 0}
  m_PrefabInstance: {fileID: 0}
  m_PrefabAsset: {fileID: 0}
  serializedVersion: 6
  m_Component:
  - component: {fileID: 3806290846844772664}
  - component: {fileID: 658806328804351806}
  m_Layer: 9
  m_Name: Bishop
  m_TagString: Untagged
  m_Icon: {fileID: 0}
  m_NavMeshLayer: 0
  m_StaticEditorFlags: 0
  m_IsActive: 1
--- !u!4 &3806290846844772664
Transform:
  m_ObjectHideFlags: 0
  m_CorrespondingSourceObject: {fileID: 0}
  m_PrefabInstance: {fileID: 0}
  m_PrefabAsset: {fileID: 0}
  m_GameObject: {fileID: 4025663580295834181}
  m_LocalRotation: {x: 0, y: 0, z: 0, w: 1}
  m_LocalPosition: {x: 0.26551652, y: 2.2202442, z: 1.3507237}
  m_LocalScale: {x: 1, y: 1, z: 1}
  m_Children:
  - {fileID: 3003542626861050270}
  m_Father: {fileID: 0}
  m_RootOrder: 0
  m_LocalEulerAnglesHint: {x: 0, y: 0, z: 0}
--- !u!114 &658806328804351806
MonoBehaviour:
  m_ObjectHideFlags: 0
  m_CorrespondingSourceObject: {fileID: 0}
  m_PrefabInstance: {fileID: 0}
  m_PrefabAsset: {fileID: 0}
  m_GameObject: {fileID: 4025663580295834181}
  m_Enabled: 1
  m_EditorHideFlags: 0
  m_Script: {fileID: 11500000, guid: ac022a83986fce6428df730c5df20252, type: 3}
  m_Name: 
  m_EditorClassIdentifier: 
  color: 0
  type: 0
  points: 3
  currentCell: {fileID: 0}
  AN_name: B
--- !u!1001 &3003542626861183774
PrefabInstance:
  m_ObjectHideFlags: 0
  serializedVersion: 2
  m_Modification:
    m_TransformParent: {fileID: 3806290846844772664}
    m_Modifications:
    - target: {fileID: 100000, guid: 3ebcae0daf8394e548da469833b04106, type: 3}
      propertyPath: m_Name
      value: GPVFX_Bishop
      objectReference: {fileID: 0}
    - target: {fileID: 100000, guid: 3ebcae0daf8394e548da469833b04106, type: 3}
      propertyPath: m_Layer
      value: 9
      objectReference: {fileID: 0}
    - target: {fileID: 400000, guid: 3ebcae0daf8394e548da469833b04106, type: 3}
      propertyPath: m_LocalPosition.x
      value: 0
      objectReference: {fileID: 0}
    - target: {fileID: 400000, guid: 3ebcae0daf8394e548da469833b04106, type: 3}
      propertyPath: m_LocalPosition.y
      value: 0
      objectReference: {fileID: 0}
    - target: {fileID: 400000, guid: 3ebcae0daf8394e548da469833b04106, type: 3}
      propertyPath: m_LocalPosition.z
      value: 0
      objectReference: {fileID: 0}
    - target: {fileID: 400000, guid: 3ebcae0daf8394e548da469833b04106, type: 3}
      propertyPath: m_LocalRotation.x
      value: 0
      objectReference: {fileID: 0}
    - target: {fileID: 400000, guid: 3ebcae0daf8394e548da469833b04106, type: 3}
      propertyPath: m_LocalRotation.y
      value: 0
      objectReference: {fileID: 0}
    - target: {fileID: 400000, guid: 3ebcae0daf8394e548da469833b04106, type: 3}
      propertyPath: m_LocalRotation.z
      value: 0
      objectReference: {fileID: 0}
    - target: {fileID: 400000, guid: 3ebcae0daf8394e548da469833b04106, type: 3}
      propertyPath: m_LocalRotation.w
      value: 1
      objectReference: {fileID: 0}
    - target: {fileID: 400000, guid: 3ebcae0daf8394e548da469833b04106, type: 3}
      propertyPath: m_RootOrder
      value: 0
      objectReference: {fileID: 0}
    - target: {fileID: 400000, guid: 3ebcae0daf8394e548da469833b04106, type: 3}
      propertyPath: m_LocalEulerAnglesHint.x
      value: 0
      objectReference: {fileID: 0}
    - target: {fileID: 400000, guid: 3ebcae0daf8394e548da469833b04106, type: 3}
      propertyPath: m_LocalEulerAnglesHint.y
      value: 0
      objectReference: {fileID: 0}
    - target: {fileID: 400000, guid: 3ebcae0daf8394e548da469833b04106, type: 3}
      propertyPath: m_LocalEulerAnglesHint.z
      value: 0
      objectReference: {fileID: 0}
    - target: {fileID: 400000, guid: 3ebcae0daf8394e548da469833b04106, type: 3}
      propertyPath: m_LocalScale.x
      value: 1
      objectReference: {fileID: 0}
    - target: {fileID: 400000, guid: 3ebcae0daf8394e548da469833b04106, type: 3}
      propertyPath: m_LocalScale.y
      value: 1
      objectReference: {fileID: 0}
    - target: {fileID: 400000, guid: 3ebcae0daf8394e548da469833b04106, type: 3}
      propertyPath: m_LocalScale.z
      value: 1
      objectReference: {fileID: 0}
    - target: {fileID: 2300000, guid: 3ebcae0daf8394e548da469833b04106, type: 3}
      propertyPath: m_Materials.Array.data[0]
      value: 
      objectReference: {fileID: 2100000, guid: 7d8c1e2651154f1459c8ddc0782baf84, type: 2}
    m_RemovedComponents: []
  m_SourcePrefab: {fileID: 100100000, guid: 3ebcae0daf8394e548da469833b04106, type: 3}
--- !u!1 &3003542626861086142 stripped
GameObject:
  m_CorrespondingSourceObject: {fileID: 100000, guid: 3ebcae0daf8394e548da469833b04106, type: 3}
  m_PrefabInstance: {fileID: 3003542626861183774}
  m_PrefabAsset: {fileID: 0}
--- !u!4 &3003542626861050270 stripped
Transform:
  m_CorrespondingSourceObject: {fileID: 400000, guid: 3ebcae0daf8394e548da469833b04106, type: 3}
  m_PrefabInstance: {fileID: 3003542626861183774}
  m_PrefabAsset: {fileID: 0}
