%YAML 1.1
%TAG !u! tag:unity3d.com,2011:
--- !u!74 &7400000
AnimationClip:
  m_ObjectHideFlags: 0
  m_CorrespondingSourceObject: {fileID: 0}
  m_PrefabInstance: {fileID: 0}
  m_PrefabAsset: {fileID: 0}
  m_Name: Attack
  serializedVersion: 6
  m_Legacy: 0
  m_Compressed: 0
  m_UseHighQualityCurve: 1
  m_RotationCurves: []
  m_CompressedRotationCurves: []
  m_EulerCurves: []
  m_PositionCurves: []
  m_ScaleCurves: []
  m_FloatCurves: []
  m_PPtrCurves:
  - curve:
    - time: 0
      value: {fileID: 21300000, guid: e60d5de74c1eaee499b17f8512c86b90, type: 3}
    - time: 0.06666667
      value: {fileID: 21300000, guid: 77679d2b91d26444a957df6dfdc6b82a, type: 3}
    - time: 0.11666667
      value: {fileID: 21300000, guid: 87f325b1f65488a42b00bea6c97cc846, type: 3}
    - time: 0.18333334
      value: {fileID: 21300000, guid: beeffd7c878373b4faf0a0830f58a6a8, type: 3}
    - time: 0.25
      value: {fileID: 21300000, guid: bd935582306a9b049848ce329a02a1f3, type: 3}
    - time: 0.3
      value: {fileID: 21300000, guid: fdf8979f50754e447ad42e99575f41a1, type: 3}
    - time: 0.36666667
      value: {fileID: 21300000, guid: 2655ed13accf59545ae0ec2269591149, type: 3}
    - time: 0.41666666
      value: {fileID: 21300000, guid: 38523fabe7c387b40b619b83b3892a9c, type: 3}
    - time: 0.48333332
      value: {fileID: 21300000, guid: 7a51d11db5ff2fe469e00e0e8030b2ed, type: 3}
    - time: 0.55
      value: {fileID: 21300000, guid: 2ea0ece6a0f024747932ae6471c82a54, type: 3}
    - time: 0.6
      value: {fileID: 21300000, guid: f22dcc906804af0488ddea935e77c168, type: 3}
    - time: 0.6666667
      value: {fileID: 21300000, guid: 916c4b61f26f60b48bd7c22ee6e2c0f9, type: 3}
    - time: 0.75
      value: {fileID: 21300000, guid: e60d5de74c1eaee499b17f8512c86b90, type: 3}
    - time: 0.8333333
      value: {fileID: 21300000, guid: 8b3dcb345da83e542b3fbfd172bc09be, type: 3}
    - time: 0.9166667
      value: {fileID: 21300000, guid: d0a7d6e634264bb48a6b4778c861c3ce, type: 3}
    - time: 1
      value: {fileID: 21300000, guid: 8b3dcb345da83e542b3fbfd172bc09be, type: 3}
    - time: 1.0833334
      value: {fileID: 21300000, guid: d0a7d6e634264bb48a6b4778c861c3ce, type: 3}
    - time: 1.1666666
      value: {fileID: 21300000, guid: 8b3dcb345da83e542b3fbfd172bc09be, type: 3}
    - time: 1.25
      value: {fileID: 21300000, guid: d0a7d6e634264bb48a6b4778c861c3ce, type: 3}
    - time: 1.3166667
      value: {fileID: 21300000, guid: 8b3dcb345da83e542b3fbfd172bc09be, type: 3}
    - time: 1.4
      value: {fileID: 21300000, guid: d0a7d6e634264bb48a6b4778c861c3ce, type: 3}
    attribute: m_Sprite
    path: 
    classID: 212
    script: {fileID: 0}
  m_SampleRate: 60
  m_WrapMode: 0
  m_Bounds:
    m_Center: {x: 0, y: 0, z: 0}
    m_Extent: {x: 0, y: 0, z: 0}
  m_ClipBindingConstant:
    genericBindings:
    - serializedVersion: 2
      path: 0
      attribute: 0
      script: {fileID: 0}
      typeID: 212
      customType: 23
      isPPtrCurve: 1
    pptrCurveMapping:
    - {fileID: 21300000, guid: e60d5de74c1eaee499b17f8512c86b90, type: 3}
    - {fileID: 21300000, guid: 77679d2b91d26444a957df6dfdc6b82a, type: 3}
    - {fileID: 21300000, guid: 87f325b1f65488a42b00bea6c97cc846, type: 3}
    - {fileID: 21300000, guid: beeffd7c878373b4faf0a0830f58a6a8, type: 3}
    - {fileID: 21300000, guid: bd935582306a9b049848ce329a02a1f3, type: 3}
    - {fileID: 21300000, guid: fdf8979f50754e447ad42e99575f41a1, type: 3}
    - {fileID: 21300000, guid: 2655ed13accf59545ae0ec2269591149, type: 3}
    - {fileID: 21300000, guid: 38523fabe7c387b40b619b83b3892a9c, type: 3}
    - {fileID: 21300000, guid: 7a51d11db5ff2fe469e00e0e8030b2ed, type: 3}
    - {fileID: 21300000, guid: 2ea0ece6a0f024747932ae6471c82a54, type: 3}
    - {fileID: 21300000, guid: f22dcc906804af0488ddea935e77c168, type: 3}
    - {fileID: 21300000, guid: 916c4b61f26f60b48bd7c22ee6e2c0f9, type: 3}
    - {fileID: 21300000, guid: e60d5de74c1eaee499b17f8512c86b90, type: 3}
    - {fileID: 21300000, guid: 8b3dcb345da83e542b3fbfd172bc09be, type: 3}
    - {fileID: 21300000, guid: d0a7d6e634264bb48a6b4778c861c3ce, type: 3}
    - {fileID: 21300000, guid: 8b3dcb345da83e542b3fbfd172bc09be, type: 3}
    - {fileID: 21300000, guid: d0a7d6e634264bb48a6b4778c861c3ce, type: 3}
    - {fileID: 21300000, guid: 8b3dcb345da83e542b3fbfd172bc09be, type: 3}
    - {fileID: 21300000, guid: d0a7d6e634264bb48a6b4778c861c3ce, type: 3}
    - {fileID: 21300000, guid: 8b3dcb345da83e542b3fbfd172bc09be, type: 3}
    - {fileID: 21300000, guid: d0a7d6e634264bb48a6b4778c861c3ce, type: 3}
  m_AnimationClipSettings:
    serializedVersion: 2
    m_AdditiveReferencePoseClip: {fileID: 0}
    m_AdditiveReferencePoseTime: 0
    m_StartTime: 0
    m_StopTime: 1.4166666
    m_OrientationOffsetY: 0
    m_Level: 0
    m_CycleOffset: 0
    m_HasAdditiveReferencePose: 0
    m_LoopTime: 1
    m_LoopBlend: 0
    m_LoopBlendOrientation: 0
    m_LoopBlendPositionY: 0
    m_LoopBlendPositionXZ: 0
    m_KeepOriginalOrientation: 0
    m_KeepOriginalPositionY: 1
    m_KeepOriginalPositionXZ: 0
    m_HeightFromFeet: 0
    m_Mirror: 0
  m_EditorCurves: []
  m_EulerEditorCurves: []
  m_HasGenericRootTransform: 0
  m_HasMotionFloatCurves: 0
  m_Events:
  - time: 0.36666667
    functionName: Attack
    data: 
    objectReferenceParameter: {fileID: 0}
    floatParameter: 0
    intParameter: 0
    messageOptions: 0
  - time: 1.4
    functionName: EndAttack
    data: 
    objectReferenceParameter: {fileID: 0}
    floatParameter: 0
    intParameter: 0
    messageOptions: 0
